%YAML 1.1
%TAG !u! tag:unity3d.com,2011:
--- !u!29 &1
OcclusionCullingSettings:
  m_ObjectHideFlags: 0
  serializedVersion: 2
  m_OcclusionBakeSettings:
    smallestOccluder: 5
    smallestHole: 0.25
    backfaceThreshold: 100
  m_SceneGUID: 00000000000000000000000000000000
  m_OcclusionCullingData: {fileID: 0}
--- !u!104 &2
RenderSettings:
  m_ObjectHideFlags: 0
  serializedVersion: 8
  m_Fog: 0
  m_FogColor: {r: 0.5, g: 0.5, b: 0.5, a: 1}
  m_FogMode: 3
  m_FogDensity: 0.01
  m_LinearFogStart: 0
  m_LinearFogEnd: 300
  m_AmbientSkyColor: {r: 0.21412, g: 0.22927, b: 0.26159, a: 1.01}
  m_AmbientEquatorColor: {r: 0.11514, g: 0.12625, b: 0.13433, a: 1.01}
  m_AmbientGroundColor: {r: 0.04747, g: 0.04343, b: 0.03535, a: 1.01}
  m_AmbientIntensity: 1.01
  m_AmbientMode: 0
  m_SubtractiveShadowColor: {r: 0.42, g: 0.478, b: 0.627, a: 1}
  m_SkyboxMaterial: {fileID: 10304, guid: 0000000000000000f000000000000000, type: 0}
  m_HaloStrength: 0.5
  m_FlareStrength: 1
  m_FlareFadeSpeed: 3
  m_HaloTexture: {fileID: 0}
  m_SpotCookie: {fileID: 10001, guid: 0000000000000000e000000000000000, type: 0}
  m_DefaultReflectionMode: 0
  m_DefaultReflectionResolution: 128
  m_ReflectionBounces: 1
  m_ReflectionIntensity: 1
  m_CustomReflection: {fileID: 0}
  m_Sun: {fileID: 0}
  m_IndirectSpecularColor: {r: 0, g: 0, b: 0, a: 1}
--- !u!157 &3
LightmapSettings:
  m_ObjectHideFlags: 0
  serializedVersion: 11
  m_GIWorkflowMode: 0
  m_GISettings:
    serializedVersion: 2
    m_BounceScale: 1
    m_IndirectOutputScale: 1
    m_AlbedoBoost: 1
    m_TemporalCoherenceThreshold: 1
    m_EnvironmentLightingMode: 0
    m_EnableBakedLightmaps: 1
    m_EnableRealtimeLightmaps: 1
  m_LightmapEditorSettings:
    serializedVersion: 9
    m_Resolution: 2
    m_BakeResolution: 40
    m_TextureWidth: 1024
    m_TextureHeight: 1024
    m_AO: 0
    m_AOMaxDistance: 1
    m_CompAOExponent: 0
    m_CompAOExponentDirect: 0
    m_Padding: 2
    m_LightmapParameters: {fileID: 0}
    m_LightmapsBakeMode: 1
    m_TextureCompression: 1
    m_FinalGather: 0
    m_FinalGatherFiltering: 1
    m_FinalGatherRayCount: 1024
    m_ReflectionCompression: 2
    m_MixedBakeMode: 1
    m_BakeBackend: 0
    m_PVRSampling: 1
    m_PVRDirectSampleCount: 32
    m_PVRSampleCount: 500
    m_PVRBounces: 2
    m_PVRFilterTypeDirect: 0
    m_PVRFilterTypeIndirect: 0
    m_PVRFilterTypeAO: 0
    m_PVRFilteringMode: 0
    m_PVRCulling: 1
    m_PVRFilteringGaussRadiusDirect: 1
    m_PVRFilteringGaussRadiusIndirect: 5
    m_PVRFilteringGaussRadiusAO: 2
    m_PVRFilteringAtrousPositionSigmaDirect: 0.5
    m_PVRFilteringAtrousPositionSigmaIndirect: 2
    m_PVRFilteringAtrousPositionSigmaAO: 1
  m_LightingDataAsset: {fileID: 0}
  m_UseShadowmask: 0
--- !u!196 &4
NavMeshSettings:
  serializedVersion: 2
  m_ObjectHideFlags: 0
  m_BuildSettings:
    serializedVersion: 2
    agentTypeID: 0
    agentRadius: 0.5
    agentHeight: 2
    agentSlope: 45
    agentClimb: 0.4
    ledgeDropHeight: 0
    maxJumpAcrossDistance: 0
    minRegionArea: 2
    manualCellSize: 0
    cellSize: 0.16666667
    manualTileSize: 0
    tileSize: 256
    accuratePlacement: 0
    debug:
      m_Flags: 0
  m_NavMeshData: {fileID: 0}
--- !u!1 &84198758
GameObject:
  m_ObjectHideFlags: 0
  m_PrefabParentObject: {fileID: 178320, guid: e05b3e8a9e80e034c86657cc7993378e, type: 2}
  m_PrefabInternal: {fileID: 1490427204}
  serializedVersion: 5
  m_Component:
  - component: {fileID: 84198759}
  m_Layer: 0
  m_Name: mastPivot (1)
  m_TagString: Untagged
  m_Icon: {fileID: 0}
  m_NavMeshLayer: 0
  m_StaticEditorFlags: 0
  m_IsActive: 1
--- !u!4 &84198759
Transform:
  m_ObjectHideFlags: 0
  m_PrefabParentObject: {fileID: 442654, guid: e05b3e8a9e80e034c86657cc7993378e, type: 2}
  m_PrefabInternal: {fileID: 1490427204}
  m_GameObject: {fileID: 84198758}
  m_LocalRotation: {x: 0, y: 0, z: 0, w: 1}
  m_LocalPosition: {x: 0, y: 4.6, z: 16.05}
  m_LocalScale: {x: 1, y: 1, z: 1}
  m_Children:
  - {fileID: 768465265}
  m_Father: {fileID: 1217395926}
  m_RootOrder: 1
  m_LocalEulerAnglesHint: {x: 0, y: 0, z: 0}
--- !u!1 &155803683
GameObject:
  m_ObjectHideFlags: 0
  m_PrefabParentObject: {fileID: 181582, guid: e05b3e8a9e80e034c86657cc7993378e, type: 2}
  m_PrefabInternal: {fileID: 1490427204}
  serializedVersion: 5
  m_Component:
  - component: {fileID: 155803684}
  m_Layer: 0
  m_Name: mastPivot (3)
  m_TagString: Untagged
  m_Icon: {fileID: 0}
  m_NavMeshLayer: 0
  m_StaticEditorFlags: 0
  m_IsActive: 1
--- !u!4 &155803684
Transform:
  m_ObjectHideFlags: 0
  m_PrefabParentObject: {fileID: 458710, guid: e05b3e8a9e80e034c86657cc7993378e, type: 2}
  m_PrefabInternal: {fileID: 1490427204}
  m_GameObject: {fileID: 155803683}
  m_LocalRotation: {x: 0, y: 0, z: 0, w: 1}
  m_LocalPosition: {x: 0, y: 1.95, z: -4.06}
  m_LocalScale: {x: 1, y: 1, z: 1}
  m_Children:
  - {fileID: 195336747}
  - {fileID: 492902494}
  - {fileID: 1149820138}
  - {fileID: 928758970}
  - {fileID: 1332786743}
  - {fileID: 1978237211}
  - {fileID: 905506276}
  - {fileID: 1424741886}
  - {fileID: 540234268}
  m_Father: {fileID: 1217395926}
  m_RootOrder: 3
  m_LocalEulerAnglesHint: {x: 0, y: 0, z: 0}
--- !u!1 &176545998
GameObject:
  m_ObjectHideFlags: 0
  m_PrefabParentObject: {fileID: 131844, guid: e05b3e8a9e80e034c86657cc7993378e, type: 2}
  m_PrefabInternal: {fileID: 1490427204}
  serializedVersion: 5
  m_Component:
  - component: {fileID: 176545999}
  - component: {fileID: 176546001}
  - component: {fileID: 176546000}
  m_Layer: 0
  m_Name: sail13
  m_TagString: Untagged
  m_Icon: {fileID: 0}
  m_NavMeshLayer: 0
  m_StaticEditorFlags: 0
  m_IsActive: 1
--- !u!4 &176545999
Transform:
  m_ObjectHideFlags: 0
  m_PrefabParentObject: {fileID: 492146, guid: e05b3e8a9e80e034c86657cc7993378e, type: 2}
  m_PrefabInternal: {fileID: 1490427204}
  m_GameObject: {fileID: 176545998}
  m_LocalRotation: {x: 0, y: 0, z: 0, w: 1}
  m_LocalPosition: {x: 0, y: -6.49, z: 11.93}
  m_LocalScale: {x: 1, y: 1, z: 1}
  m_Children: []
  m_Father: {fileID: 342374497}
  m_RootOrder: 0
  m_LocalEulerAnglesHint: {x: 0, y: 0, z: 0}
--- !u!23 &176546000
MeshRenderer:
  m_ObjectHideFlags: 0
  m_PrefabParentObject: {fileID: 2301032, guid: e05b3e8a9e80e034c86657cc7993378e,
    type: 2}
  m_PrefabInternal: {fileID: 1490427204}
  m_GameObject: {fileID: 176545998}
  m_Enabled: 1
  m_CastShadows: 1
  m_ReceiveShadows: 1
  m_DynamicOccludee: 1
  m_MotionVectors: 1
  m_LightProbeUsage: 1
  m_ReflectionProbeUsage: 1
  m_Materials:
  - {fileID: 2100000, guid: 6a00192e6f5fa3640ae0834b735ed847, type: 2}
  m_StaticBatchInfo:
    firstSubMesh: 0
    subMeshCount: 0
  m_StaticBatchRoot: {fileID: 0}
  m_ProbeAnchor: {fileID: 0}
  m_LightProbeVolumeOverride: {fileID: 0}
  m_ScaleInLightmap: 1
  m_PreserveUVs: 0
  m_IgnoreNormalsForChartDetection: 0
  m_ImportantGI: 0
  m_StitchLightmapSeams: 0
  m_SelectedEditorRenderState: 3
  m_MinimumChartSize: 4
  m_AutoUVMaxDistance: 0.5
  m_AutoUVMaxAngle: 89
  m_LightmapParameters: {fileID: 0}
  m_SortingLayerID: 0
  m_SortingLayer: 0
  m_SortingOrder: 0
--- !u!33 &176546001
MeshFilter:
  m_ObjectHideFlags: 0
  m_PrefabParentObject: {fileID: 3334358, guid: e05b3e8a9e80e034c86657cc7993378e,
    type: 2}
  m_PrefabInternal: {fileID: 1490427204}
  m_GameObject: {fileID: 176545998}
  m_Mesh: {fileID: 4300054, guid: 81f3769ab2b82604aad39f57de409e99, type: 3}
--- !u!1 &195336746
GameObject:
  m_ObjectHideFlags: 0
  m_PrefabParentObject: {fileID: 118546, guid: e05b3e8a9e80e034c86657cc7993378e, type: 2}
  m_PrefabInternal: {fileID: 1490427204}
  serializedVersion: 5
  m_Component:
  - component: {fileID: 195336747}
  - component: {fileID: 195336749}
  - component: {fileID: 195336748}
  m_Layer: 0
  m_Name: mast3
  m_TagString: Untagged
  m_Icon: {fileID: 0}
  m_NavMeshLayer: 0
  m_StaticEditorFlags: 0
  m_IsActive: 1
--- !u!4 &195336747
Transform:
  m_ObjectHideFlags: 0
  m_PrefabParentObject: {fileID: 490724, guid: e05b3e8a9e80e034c86657cc7993378e, type: 2}
  m_PrefabInternal: {fileID: 1490427204}
  m_GameObject: {fileID: 195336746}
  m_LocalRotation: {x: 0, y: 0, z: 0, w: 1}
  m_LocalPosition: {x: 0, y: -1.95, z: 4.06}
  m_LocalScale: {x: 1, y: 1, z: 1}
  m_Children: []
  m_Father: {fileID: 155803684}
  m_RootOrder: 0
  m_LocalEulerAnglesHint: {x: 0, y: 0, z: 0}
--- !u!23 &195336748
MeshRenderer:
  m_ObjectHideFlags: 0
  m_PrefabParentObject: {fileID: 2321458, guid: e05b3e8a9e80e034c86657cc7993378e,
    type: 2}
  m_PrefabInternal: {fileID: 1490427204}
  m_GameObject: {fileID: 195336746}
  m_Enabled: 1
  m_CastShadows: 1
  m_ReceiveShadows: 1
  m_DynamicOccludee: 1
  m_MotionVectors: 1
  m_LightProbeUsage: 1
  m_ReflectionProbeUsage: 1
  m_Materials:
  - {fileID: 2100000, guid: 6a00192e6f5fa3640ae0834b735ed847, type: 2}
  m_StaticBatchInfo:
    firstSubMesh: 0
    subMeshCount: 0
  m_StaticBatchRoot: {fileID: 0}
  m_ProbeAnchor: {fileID: 0}
  m_LightProbeVolumeOverride: {fileID: 0}
  m_ScaleInLightmap: 1
  m_PreserveUVs: 0
  m_IgnoreNormalsForChartDetection: 0
  m_ImportantGI: 0
  m_StitchLightmapSeams: 0
  m_SelectedEditorRenderState: 3
  m_MinimumChartSize: 4
  m_AutoUVMaxDistance: 0.5
  m_AutoUVMaxAngle: 89
  m_LightmapParameters: {fileID: 0}
  m_SortingLayerID: 0
  m_SortingLayer: 0
  m_SortingOrder: 0
--- !u!33 &195336749
MeshFilter:
  m_ObjectHideFlags: 0
  m_PrefabParentObject: {fileID: 3373408, guid: e05b3e8a9e80e034c86657cc7993378e,
    type: 2}
  m_PrefabInternal: {fileID: 1490427204}
  m_GameObject: {fileID: 195336746}
  m_Mesh: {fileID: 4300028, guid: 81f3769ab2b82604aad39f57de409e99, type: 3}
--- !u!1 &235080217
GameObject:
  m_ObjectHideFlags: 0
  m_PrefabParentObject: {fileID: 137596, guid: e05b3e8a9e80e034c86657cc7993378e, type: 2}
  m_PrefabInternal: {fileID: 1490427204}
  serializedVersion: 5
  m_Component:
  - component: {fileID: 235080218}
  - component: {fileID: 235080220}
  - component: {fileID: 235080219}
  m_Layer: 0
  m_Name: sail7
  m_TagString: Untagged
  m_Icon: {fileID: 0}
  m_NavMeshLayer: 0
  m_StaticEditorFlags: 0
  m_IsActive: 1
--- !u!4 &235080218
Transform:
  m_ObjectHideFlags: 0
  m_PrefabParentObject: {fileID: 496800, guid: e05b3e8a9e80e034c86657cc7993378e, type: 2}
  m_PrefabInternal: {fileID: 1490427204}
  m_GameObject: {fileID: 235080217}
  m_LocalRotation: {x: 0, y: 0, z: 0, w: 1}
  m_LocalPosition: {x: 0, y: -26.29, z: 5.35}
  m_LocalScale: {x: 1, y: 1, z: 1}
  m_Children: []
  m_Father: {fileID: 1149820138}
  m_RootOrder: 0
  m_LocalEulerAnglesHint: {x: 0, y: 0, z: 0}
--- !u!23 &235080219
MeshRenderer:
  m_ObjectHideFlags: 0
  m_PrefabParentObject: {fileID: 2318420, guid: e05b3e8a9e80e034c86657cc7993378e,
    type: 2}
  m_PrefabInternal: {fileID: 1490427204}
  m_GameObject: {fileID: 235080217}
  m_Enabled: 1
  m_CastShadows: 1
  m_ReceiveShadows: 1
  m_DynamicOccludee: 1
  m_MotionVectors: 1
  m_LightProbeUsage: 1
  m_ReflectionProbeUsage: 1
  m_Materials:
  - {fileID: 2100000, guid: 6a00192e6f5fa3640ae0834b735ed847, type: 2}
  m_StaticBatchInfo:
    firstSubMesh: 0
    subMeshCount: 0
  m_StaticBatchRoot: {fileID: 0}
  m_ProbeAnchor: {fileID: 0}
  m_LightProbeVolumeOverride: {fileID: 0}
  m_ScaleInLightmap: 1
  m_PreserveUVs: 0
  m_IgnoreNormalsForChartDetection: 0
  m_ImportantGI: 0
  m_StitchLightmapSeams: 0
  m_SelectedEditorRenderState: 3
  m_MinimumChartSize: 4
  m_AutoUVMaxDistance: 0.5
  m_AutoUVMaxAngle: 89
  m_LightmapParameters: {fileID: 0}
  m_SortingLayerID: 0
  m_SortingLayer: 0
  m_SortingOrder: 0
--- !u!33 &235080220
MeshFilter:
  m_ObjectHideFlags: 0
  m_PrefabParentObject: {fileID: 3332790, guid: e05b3e8a9e80e034c86657cc7993378e,
    type: 2}
  m_PrefabInternal: {fileID: 1490427204}
  m_GameObject: {fileID: 235080217}
  m_Mesh: {fileID: 4300066, guid: 81f3769ab2b82604aad39f57de409e99, type: 3}
--- !u!1 &259825406
GameObject:
  m_ObjectHideFlags: 0
  m_PrefabParentObject: {fileID: 155898, guid: e05b3e8a9e80e034c86657cc7993378e, type: 2}
  m_PrefabInternal: {fileID: 1490427204}
  serializedVersion: 5
  m_Component:
  - component: {fileID: 259825407}
  - component: {fileID: 259825409}
  - component: {fileID: 259825408}
  m_Layer: 0
  m_Name: sail5
  m_TagString: Untagged
  m_Icon: {fileID: 0}
  m_NavMeshLayer: 0
  m_StaticEditorFlags: 0
  m_IsActive: 1
--- !u!4 &259825407
Transform:
  m_ObjectHideFlags: 0
  m_PrefabParentObject: {fileID: 463022, guid: e05b3e8a9e80e034c86657cc7993378e, type: 2}
  m_PrefabInternal: {fileID: 1490427204}
  m_GameObject: {fileID: 259825406}
  m_LocalRotation: {x: 0, y: 0, z: 0, w: 1}
  m_LocalPosition: {x: 0, y: -15.08, z: -7.04}
  m_LocalScale: {x: 1, y: 1, z: 1}
  m_Children: []
  m_Father: {fileID: 876803848}
  m_RootOrder: 0
  m_LocalEulerAnglesHint: {x: 0, y: 0, z: 0}
--- !u!23 &259825408
MeshRenderer:
  m_ObjectHideFlags: 0
  m_PrefabParentObject: {fileID: 2373776, guid: e05b3e8a9e80e034c86657cc7993378e,
    type: 2}
  m_PrefabInternal: {fileID: 1490427204}
  m_GameObject: {fileID: 259825406}
  m_Enabled: 1
  m_CastShadows: 1
  m_ReceiveShadows: 1
  m_DynamicOccludee: 1
  m_MotionVectors: 1
  m_LightProbeUsage: 1
  m_ReflectionProbeUsage: 1
  m_Materials:
  - {fileID: 2100000, guid: 6a00192e6f5fa3640ae0834b735ed847, type: 2}
  m_StaticBatchInfo:
    firstSubMesh: 0
    subMeshCount: 0
  m_StaticBatchRoot: {fileID: 0}
  m_ProbeAnchor: {fileID: 0}
  m_LightProbeVolumeOverride: {fileID: 0}
  m_ScaleInLightmap: 1
  m_PreserveUVs: 0
  m_IgnoreNormalsForChartDetection: 0
  m_ImportantGI: 0
  m_StitchLightmapSeams: 0
  m_SelectedEditorRenderState: 3
  m_MinimumChartSize: 4
  m_AutoUVMaxDistance: 0.5
  m_AutoUVMaxAngle: 89
  m_LightmapParameters: {fileID: 0}
  m_SortingLayerID: 0
  m_SortingLayer: 0
  m_SortingOrder: 0
--- !u!33 &259825409
MeshFilter:
  m_ObjectHideFlags: 0
  m_PrefabParentObject: {fileID: 3373602, guid: e05b3e8a9e80e034c86657cc7993378e,
    type: 2}
  m_PrefabInternal: {fileID: 1490427204}
  m_GameObject: {fileID: 259825406}
  m_Mesh: {fileID: 4300062, guid: 81f3769ab2b82604aad39f57de409e99, type: 3}
--- !u!1 &270278761
GameObject:
  m_ObjectHideFlags: 0
  m_PrefabParentObject: {fileID: 105758, guid: e05b3e8a9e80e034c86657cc7993378e, type: 2}
  m_PrefabInternal: {fileID: 1490427204}
  serializedVersion: 5
  m_Component:
  - component: {fileID: 270278762}
  m_Layer: 0
  m_Name: sailPivot (4)
  m_TagString: Untagged
  m_Icon: {fileID: 0}
  m_NavMeshLayer: 0
  m_StaticEditorFlags: 0
  m_IsActive: 1
--- !u!4 &270278762
Transform:
  m_ObjectHideFlags: 0
  m_PrefabParentObject: {fileID: 400924, guid: e05b3e8a9e80e034c86657cc7993378e, type: 2}
  m_PrefabInternal: {fileID: 1490427204}
  m_GameObject: {fileID: 270278761}
  m_LocalRotation: {x: 0, y: 0, z: 0, w: 1}
  m_LocalPosition: {x: 0, y: 23.83, z: -1.4699998}
  m_LocalScale: {x: 1, y: 1, z: 1}
  m_Children:
  - {fileID: 470660699}
  m_Father: {fileID: 815702902}
  m_RootOrder: 4
  m_LocalEulerAnglesHint: {x: 0, y: 0, z: 0}
--- !u!1 &306856813
GameObject:
  m_ObjectHideFlags: 0
  m_PrefabParentObject: {fileID: 144520, guid: e05b3e8a9e80e034c86657cc7993378e, type: 2}
  m_PrefabInternal: {fileID: 1490427204}
  serializedVersion: 5
  m_Component:
  - component: {fileID: 306856814}
  m_Layer: 0
  m_Name: mastPivot (4)
  m_TagString: Untagged
  m_Icon: {fileID: 0}
  m_NavMeshLayer: 0
  m_StaticEditorFlags: 0
  m_IsActive: 1
--- !u!4 &306856814
Transform:
  m_ObjectHideFlags: 0
  m_PrefabParentObject: {fileID: 487168, guid: e05b3e8a9e80e034c86657cc7993378e, type: 2}
  m_PrefabInternal: {fileID: 1490427204}
  m_GameObject: {fileID: 306856813}
  m_LocalRotation: {x: 0, y: 0, z: 0, w: 1}
  m_LocalPosition: {x: 0, y: 4.4, z: -11.95}
  m_LocalScale: {x: 1, y: 1, z: 1}
  m_Children:
  - {fileID: 1194641620}
  - {fileID: 1653786592}
  - {fileID: 342374497}
  m_Father: {fileID: 1217395926}
  m_RootOrder: 4
  m_LocalEulerAnglesHint: {x: 0, y: 0, z: 0}
--- !u!1 &342374496
GameObject:
  m_ObjectHideFlags: 0
  m_PrefabParentObject: {fileID: 125776, guid: e05b3e8a9e80e034c86657cc7993378e, type: 2}
  m_PrefabInternal: {fileID: 1490427204}
  serializedVersion: 5
  m_Component:
  - component: {fileID: 342374497}
  m_Layer: 0
  m_Name: sailPivot (13)
  m_TagString: Untagged
  m_Icon: {fileID: 0}
  m_NavMeshLayer: 0
  m_StaticEditorFlags: 0
  m_IsActive: 1
--- !u!4 &342374497
Transform:
  m_ObjectHideFlags: 0
  m_PrefabParentObject: {fileID: 482530, guid: e05b3e8a9e80e034c86657cc7993378e, type: 2}
  m_PrefabInternal: {fileID: 1490427204}
  m_GameObject: {fileID: 342374496}
  m_LocalRotation: {x: 0, y: 0, z: 0, w: 1}
  m_LocalPosition: {x: 0, y: 2.0899997, z: 0.019999504}
  m_LocalScale: {x: 1, y: 1, z: 1}
  m_Children:
  - {fileID: 176545999}
  m_Father: {fileID: 306856814}
  m_RootOrder: 2
  m_LocalEulerAnglesHint: {x: 0, y: 0, z: 0}
--- !u!1 &470660698
GameObject:
  m_ObjectHideFlags: 0
  m_PrefabParentObject: {fileID: 139056, guid: e05b3e8a9e80e034c86657cc7993378e, type: 2}
  m_PrefabInternal: {fileID: 1490427204}
  serializedVersion: 5
  m_Component:
  - component: {fileID: 470660699}
  - component: {fileID: 470660701}
  - component: {fileID: 470660700}
  m_Layer: 0
  m_Name: sail4
  m_TagString: Untagged
  m_Icon: {fileID: 0}
  m_NavMeshLayer: 0
  m_StaticEditorFlags: 0
  m_IsActive: 1
--- !u!4 &470660699
Transform:
  m_ObjectHideFlags: 0
  m_PrefabParentObject: {fileID: 493492, guid: e05b3e8a9e80e034c86657cc7993378e, type: 2}
  m_PrefabInternal: {fileID: 1490427204}
  m_GameObject: {fileID: 470660698}
  m_LocalRotation: {x: 0, y: 0, z: 0, w: 1}
  m_LocalPosition: {x: 0, y: -26.17, z: -6.32}
  m_LocalScale: {x: 1, y: 1, z: 1}
  m_Children: []
  m_Father: {fileID: 270278762}
  m_RootOrder: 0
  m_LocalEulerAnglesHint: {x: 0, y: 0, z: 0}
--- !u!23 &470660700
MeshRenderer:
  m_ObjectHideFlags: 0
  m_PrefabParentObject: {fileID: 2386294, guid: e05b3e8a9e80e034c86657cc7993378e,
    type: 2}
  m_PrefabInternal: {fileID: 1490427204}
  m_GameObject: {fileID: 470660698}
  m_Enabled: 1
  m_CastShadows: 1
  m_ReceiveShadows: 1
  m_DynamicOccludee: 1
  m_MotionVectors: 1
  m_LightProbeUsage: 1
  m_ReflectionProbeUsage: 1
  m_Materials:
  - {fileID: 2100000, guid: 6a00192e6f5fa3640ae0834b735ed847, type: 2}
  m_StaticBatchInfo:
    firstSubMesh: 0
    subMeshCount: 0
  m_StaticBatchRoot: {fileID: 0}
  m_ProbeAnchor: {fileID: 0}
  m_LightProbeVolumeOverride: {fileID: 0}
  m_ScaleInLightmap: 1
  m_PreserveUVs: 0
  m_IgnoreNormalsForChartDetection: 0
  m_ImportantGI: 0
  m_StitchLightmapSeams: 0
  m_SelectedEditorRenderState: 3
  m_MinimumChartSize: 4
  m_AutoUVMaxDistance: 0.5
  m_AutoUVMaxAngle: 89
  m_LightmapParameters: {fileID: 0}
  m_SortingLayerID: 0
  m_SortingLayer: 0
  m_SortingOrder: 0
--- !u!33 &470660701
MeshFilter:
  m_ObjectHideFlags: 0
  m_PrefabParentObject: {fileID: 3334738, guid: e05b3e8a9e80e034c86657cc7993378e,
    type: 2}
  m_PrefabInternal: {fileID: 1490427204}
  m_GameObject: {fileID: 470660698}
  m_Mesh: {fileID: 4300060, guid: 81f3769ab2b82604aad39f57de409e99, type: 3}
--- !u!1 &492902493
GameObject:
  m_ObjectHideFlags: 0
  m_PrefabParentObject: {fileID: 162206, guid: e05b3e8a9e80e034c86657cc7993378e, type: 2}
  m_PrefabInternal: {fileID: 1490427204}
  serializedVersion: 5
  m_Component:
  - component: {fileID: 492902494}
  m_Layer: 0
  m_Name: sailPivot (6)
  m_TagString: Untagged
  m_Icon: {fileID: 0}
  m_NavMeshLayer: 0
  m_StaticEditorFlags: 0
  m_IsActive: 1
--- !u!4 &492902494
Transform:
  m_ObjectHideFlags: 0
  m_PrefabParentObject: {fileID: 444230, guid: e05b3e8a9e80e034c86657cc7993378e, type: 2}
  m_PrefabInternal: {fileID: 1490427204}
  m_GameObject: {fileID: 492902493}
  m_LocalRotation: {x: 0, y: 0, z: 0, w: 1}
  m_LocalPosition: {x: 0, y: 29.029999, z: -1.5700002}
  m_LocalScale: {x: 1, y: 1, z: 1}
  m_Children:
  - {fileID: 2000018551}
  m_Father: {fileID: 155803684}
  m_RootOrder: 1
  m_LocalEulerAnglesHint: {x: 0, y: 0, z: 0}
--- !u!1 &540234267
GameObject:
  m_ObjectHideFlags: 0
  m_PrefabParentObject: {fileID: 124676, guid: e05b3e8a9e80e034c86657cc7993378e, type: 2}
  m_PrefabInternal: {fileID: 1490427204}
  serializedVersion: 5
  m_Component:
  - component: {fileID: 540234268}
  - component: {fileID: 540234270}
  - component: {fileID: 540234269}
  m_Layer: 0
  m_Name: rope10
  m_TagString: Untagged
  m_Icon: {fileID: 0}
  m_NavMeshLayer: 0
  m_StaticEditorFlags: 0
  m_IsActive: 1
--- !u!4 &540234268
Transform:
  m_ObjectHideFlags: 0
  m_PrefabParentObject: {fileID: 442870, guid: e05b3e8a9e80e034c86657cc7993378e, type: 2}
  m_PrefabInternal: {fileID: 1490427204}
  m_GameObject: {fileID: 540234267}
  m_LocalRotation: {x: 0, y: 0, z: 0, w: 1}
  m_LocalPosition: {x: 0, y: -1.95, z: 4.06}
  m_LocalScale: {x: 1, y: 1, z: 1}
  m_Children: []
  m_Father: {fileID: 155803684}
  m_RootOrder: 8
  m_LocalEulerAnglesHint: {x: 0, y: 0, z: 0}
--- !u!23 &540234269
MeshRenderer:
  m_ObjectHideFlags: 0
  m_PrefabParentObject: {fileID: 2386550, guid: e05b3e8a9e80e034c86657cc7993378e,
    type: 2}
  m_PrefabInternal: {fileID: 1490427204}
  m_GameObject: {fileID: 540234267}
  m_Enabled: 1
  m_CastShadows: 1
  m_ReceiveShadows: 1
  m_DynamicOccludee: 1
  m_MotionVectors: 1
  m_LightProbeUsage: 1
  m_ReflectionProbeUsage: 1
  m_Materials:
  - {fileID: 2100000, guid: 6a00192e6f5fa3640ae0834b735ed847, type: 2}
  m_StaticBatchInfo:
    firstSubMesh: 0
    subMeshCount: 0
  m_StaticBatchRoot: {fileID: 0}
  m_ProbeAnchor: {fileID: 0}
  m_LightProbeVolumeOverride: {fileID: 0}
  m_ScaleInLightmap: 1
  m_PreserveUVs: 0
  m_IgnoreNormalsForChartDetection: 0
  m_ImportantGI: 0
  m_StitchLightmapSeams: 0
  m_SelectedEditorRenderState: 3
  m_MinimumChartSize: 4
  m_AutoUVMaxDistance: 0.5
  m_AutoUVMaxAngle: 89
  m_LightmapParameters: {fileID: 0}
  m_SortingLayerID: 0
  m_SortingLayer: 0
  m_SortingOrder: 0
--- !u!33 &540234270
MeshFilter:
  m_ObjectHideFlags: 0
  m_PrefabParentObject: {fileID: 3366680, guid: e05b3e8a9e80e034c86657cc7993378e,
    type: 2}
  m_PrefabInternal: {fileID: 1490427204}
  m_GameObject: {fileID: 540234267}
  m_Mesh: {fileID: 4300034, guid: 81f3769ab2b82604aad39f57de409e99, type: 3}
--- !u!1 &681580773
GameObject:
  m_ObjectHideFlags: 0
  m_PrefabParentObject: {fileID: 142374, guid: e05b3e8a9e80e034c86657cc7993378e, type: 2}
  m_PrefabInternal: {fileID: 1490427204}
  serializedVersion: 5
  m_Component:
  - component: {fileID: 681580774}
  - component: {fileID: 681580776}
  - component: {fileID: 681580775}
  m_Layer: 0
  m_Name: rope2
  m_TagString: Untagged
  m_Icon: {fileID: 0}
  m_NavMeshLayer: 0
  m_StaticEditorFlags: 0
  m_IsActive: 1
--- !u!4 &681580774
Transform:
  m_ObjectHideFlags: 0
  m_PrefabParentObject: {fileID: 447718, guid: e05b3e8a9e80e034c86657cc7993378e, type: 2}
  m_PrefabInternal: {fileID: 1490427204}
  m_GameObject: {fileID: 681580773}
  m_LocalRotation: {x: 0, y: 0, z: 0, w: 1}
  m_LocalPosition: {x: 0, y: -2.34, z: -7.79}
  m_LocalScale: {x: 1, y: 1, z: 1}
  m_Children: []
  m_Father: {fileID: 815702902}
  m_RootOrder: 7
  m_LocalEulerAnglesHint: {x: 0, y: 0, z: 0}
--- !u!23 &681580775
MeshRenderer:
  m_ObjectHideFlags: 0
  m_PrefabParentObject: {fileID: 2377816, guid: e05b3e8a9e80e034c86657cc7993378e,
    type: 2}
  m_PrefabInternal: {fileID: 1490427204}
  m_GameObject: {fileID: 681580773}
  m_Enabled: 1
  m_CastShadows: 1
  m_ReceiveShadows: 1
  m_DynamicOccludee: 1
  m_MotionVectors: 1
  m_LightProbeUsage: 1
  m_ReflectionProbeUsage: 1
  m_Materials:
  - {fileID: 2100000, guid: 6a00192e6f5fa3640ae0834b735ed847, type: 2}
  m_StaticBatchInfo:
    firstSubMesh: 0
    subMeshCount: 0
  m_StaticBatchRoot: {fileID: 0}
  m_ProbeAnchor: {fileID: 0}
  m_LightProbeVolumeOverride: {fileID: 0}
  m_ScaleInLightmap: 1
  m_PreserveUVs: 0
  m_IgnoreNormalsForChartDetection: 0
  m_ImportantGI: 0
  m_StitchLightmapSeams: 0
  m_SelectedEditorRenderState: 3
  m_MinimumChartSize: 4
  m_AutoUVMaxDistance: 0.5
  m_AutoUVMaxAngle: 89
  m_LightmapParameters: {fileID: 0}
  m_SortingLayerID: 0
  m_SortingLayer: 0
  m_SortingOrder: 0
--- !u!33 &681580776
MeshFilter:
  m_ObjectHideFlags: 0
  m_PrefabParentObject: {fileID: 3387546, guid: e05b3e8a9e80e034c86657cc7993378e,
    type: 2}
  m_PrefabInternal: {fileID: 1490427204}
  m_GameObject: {fileID: 681580773}
  m_Mesh: {fileID: 4300036, guid: 81f3769ab2b82604aad39f57de409e99, type: 3}
--- !u!1 &694894437
GameObject:
  m_ObjectHideFlags: 0
  m_PrefabParentObject: {fileID: 185686, guid: e05b3e8a9e80e034c86657cc7993378e, type: 2}
  m_PrefabInternal: {fileID: 1490427204}
  serializedVersion: 5
  m_Component:
  - component: {fileID: 694894438}
  - component: {fileID: 694894440}
  - component: {fileID: 694894439}
  m_Layer: 0
  m_Name: sail2
  m_TagString: Untagged
  m_Icon: {fileID: 0}
  m_NavMeshLayer: 0
  m_StaticEditorFlags: 0
  m_IsActive: 1
--- !u!4 &694894438
Transform:
  m_ObjectHideFlags: 0
  m_PrefabParentObject: {fileID: 465478, guid: e05b3e8a9e80e034c86657cc7993378e, type: 2}
  m_PrefabInternal: {fileID: 1490427204}
  m_GameObject: {fileID: 694894437}
  m_LocalRotation: {x: -0.4357616, y: 0, z: 0, w: 0.90006214}
  m_LocalPosition: {x: 0, y: -22.34539, z: 3.6088352}
  m_LocalScale: {x: 1, y: 1, z: 1}
  m_Children: []
  m_Father: {fileID: 1485135178}
  m_RootOrder: 0
  m_LocalEulerAnglesHint: {x: -51.6675, y: 0, z: 0}
--- !u!23 &694894439
MeshRenderer:
  m_ObjectHideFlags: 0
  m_PrefabParentObject: {fileID: 2338828, guid: e05b3e8a9e80e034c86657cc7993378e,
    type: 2}
  m_PrefabInternal: {fileID: 1490427204}
  m_GameObject: {fileID: 694894437}
  m_Enabled: 1
  m_CastShadows: 1
  m_ReceiveShadows: 1
  m_DynamicOccludee: 1
  m_MotionVectors: 1
  m_LightProbeUsage: 1
  m_ReflectionProbeUsage: 1
  m_Materials:
  - {fileID: 2100000, guid: 6a00192e6f5fa3640ae0834b735ed847, type: 2}
  m_StaticBatchInfo:
    firstSubMesh: 0
    subMeshCount: 0
  m_StaticBatchRoot: {fileID: 0}
  m_ProbeAnchor: {fileID: 0}
  m_LightProbeVolumeOverride: {fileID: 0}
  m_ScaleInLightmap: 1
  m_PreserveUVs: 0
  m_IgnoreNormalsForChartDetection: 0
  m_ImportantGI: 0
  m_StitchLightmapSeams: 0
  m_SelectedEditorRenderState: 3
  m_MinimumChartSize: 4
  m_AutoUVMaxDistance: 0.5
  m_AutoUVMaxAngle: 89
  m_LightmapParameters: {fileID: 0}
  m_SortingLayerID: 0
  m_SortingLayer: 0
  m_SortingOrder: 0
--- !u!33 &694894440
MeshFilter:
  m_ObjectHideFlags: 0
  m_PrefabParentObject: {fileID: 3385952, guid: e05b3e8a9e80e034c86657cc7993378e,
    type: 2}
  m_PrefabInternal: {fileID: 1490427204}
  m_GameObject: {fileID: 694894437}
  m_Mesh: {fileID: 4300056, guid: 81f3769ab2b82604aad39f57de409e99, type: 3}
--- !u!1 &768465264
GameObject:
  m_ObjectHideFlags: 0
  m_PrefabParentObject: {fileID: 114770, guid: e05b3e8a9e80e034c86657cc7993378e, type: 2}
  m_PrefabInternal: {fileID: 1490427204}
  serializedVersion: 5
  m_Component:
  - component: {fileID: 768465265}
  - component: {fileID: 768465267}
  - component: {fileID: 768465266}
  m_Layer: 0
  m_Name: mast1
  m_TagString: Untagged
  m_Icon: {fileID: 0}
  m_NavMeshLayer: 0
  m_StaticEditorFlags: 0
  m_IsActive: 1
--- !u!4 &768465265
Transform:
  m_ObjectHideFlags: 0
  m_PrefabParentObject: {fileID: 447206, guid: e05b3e8a9e80e034c86657cc7993378e, type: 2}
  m_PrefabInternal: {fileID: 1490427204}
  m_GameObject: {fileID: 768465264}
  m_LocalRotation: {x: 0, y: 0, z: 0, w: 1}
  m_LocalPosition: {x: 0, y: -4.6, z: -16.05}
  m_LocalScale: {x: 1, y: 1, z: 1}
  m_Children: []
  m_Father: {fileID: 84198759}
  m_RootOrder: 0
  m_LocalEulerAnglesHint: {x: 0, y: 0, z: 0}
--- !u!23 &768465266
MeshRenderer:
  m_ObjectHideFlags: 0
  m_PrefabParentObject: {fileID: 2386938, guid: e05b3e8a9e80e034c86657cc7993378e,
    type: 2}
  m_PrefabInternal: {fileID: 1490427204}
  m_GameObject: {fileID: 768465264}
  m_Enabled: 1
  m_CastShadows: 1
  m_ReceiveShadows: 1
  m_DynamicOccludee: 1
  m_MotionVectors: 1
  m_LightProbeUsage: 1
  m_ReflectionProbeUsage: 1
  m_Materials:
  - {fileID: 2100000, guid: 6a00192e6f5fa3640ae0834b735ed847, type: 2}
  m_StaticBatchInfo:
    firstSubMesh: 0
    subMeshCount: 0
  m_StaticBatchRoot: {fileID: 0}
  m_ProbeAnchor: {fileID: 0}
  m_LightProbeVolumeOverride: {fileID: 0}
  m_ScaleInLightmap: 1
  m_PreserveUVs: 0
  m_IgnoreNormalsForChartDetection: 0
  m_ImportantGI: 0
  m_StitchLightmapSeams: 0
  m_SelectedEditorRenderState: 3
  m_MinimumChartSize: 4
  m_AutoUVMaxDistance: 0.5
  m_AutoUVMaxAngle: 89
  m_LightmapParameters: {fileID: 0}
  m_SortingLayerID: 0
  m_SortingLayer: 0
  m_SortingOrder: 0
--- !u!33 &768465267
MeshFilter:
  m_ObjectHideFlags: 0
  m_PrefabParentObject: {fileID: 3320824, guid: e05b3e8a9e80e034c86657cc7993378e,
    type: 2}
  m_PrefabInternal: {fileID: 1490427204}
  m_GameObject: {fileID: 768465264}
  m_Mesh: {fileID: 4300024, guid: 81f3769ab2b82604aad39f57de409e99, type: 3}
--- !u!1 &815702901
GameObject:
  m_ObjectHideFlags: 0
  m_PrefabParentObject: {fileID: 134556, guid: e05b3e8a9e80e034c86657cc7993378e, type: 2}
  m_PrefabInternal: {fileID: 1490427204}
  serializedVersion: 5
  m_Component:
  - component: {fileID: 815702902}
  m_Layer: 0
  m_Name: mastPivot (2)
  m_TagString: Untagged
  m_Icon: {fileID: 0}
  m_NavMeshLayer: 0
  m_StaticEditorFlags: 0
  m_IsActive: 1
--- !u!4 &815702902
Transform:
  m_ObjectHideFlags: 0
  m_PrefabParentObject: {fileID: 410988, guid: e05b3e8a9e80e034c86657cc7993378e, type: 2}
  m_PrefabInternal: {fileID: 1490427204}
  m_GameObject: {fileID: 815702901}
  m_LocalRotation: {x: 0, y: 0, z: 0, w: 1}
  m_LocalPosition: {x: 0, y: 2.34, z: 7.79}
  m_LocalScale: {x: 1, y: 1, z: 1}
  m_Children:
  - {fileID: 1115931002}
  - {fileID: 853753944}
  - {fileID: 1485135178}
  - {fileID: 1478880606}
  - {fileID: 270278762}
  - {fileID: 876803848}
  - {fileID: 1322797227}
  - {fileID: 681580774}
  - {fileID: 1781151228}
  - {fileID: 1165005494}
  - {fileID: 1346816785}
  m_Father: {fileID: 1217395926}
  m_RootOrder: 2
  m_LocalEulerAnglesHint: {x: 0, y: 0, z: 0}
--- !u!1 &853753943
GameObject:
  m_ObjectHideFlags: 0
  m_PrefabParentObject: {fileID: 175002, guid: e05b3e8a9e80e034c86657cc7993378e, type: 2}
  m_PrefabInternal: {fileID: 1490427204}
  serializedVersion: 5
  m_Component:
  - component: {fileID: 853753944}
  m_Layer: 0
  m_Name: sailPivot (1)
  m_TagString: Untagged
  m_Icon: {fileID: 0}
  m_NavMeshLayer: 0
  m_StaticEditorFlags: 0
  m_IsActive: 1
--- !u!4 &853753944
Transform:
  m_ObjectHideFlags: 0
  m_PrefabParentObject: {fileID: 410122, guid: e05b3e8a9e80e034c86657cc7993378e, type: 2}
  m_PrefabInternal: {fileID: 1490427204}
  m_GameObject: {fileID: 853753943}
  m_LocalRotation: {x: 0.4511704, y: 0, z: 0, w: 0.8924379}
  m_LocalPosition: {x: 0, y: 15.469999, z: 10.8}
  m_LocalScale: {x: 1, y: 1, z: 1}
  m_Children:
  - {fileID: 1171980981}
  m_Father: {fileID: 815702902}
  m_RootOrder: 1
  m_LocalEulerAnglesHint: {x: 53.6376, y: 0, z: 0}
--- !u!1 &876803847
GameObject:
  m_ObjectHideFlags: 0
  m_PrefabParentObject: {fileID: 169478, guid: e05b3e8a9e80e034c86657cc7993378e, type: 2}
  m_PrefabInternal: {fileID: 1490427204}
  serializedVersion: 5
  m_Component:
  - component: {fileID: 876803848}
  m_Layer: 0
  m_Name: sailPivot (5)
  m_TagString: Untagged
  m_Icon: {fileID: 0}
  m_NavMeshLayer: 0
  m_StaticEditorFlags: 0
  m_IsActive: 1
--- !u!4 &876803848
Transform:
  m_ObjectHideFlags: 0
  m_PrefabParentObject: {fileID: 453094, guid: e05b3e8a9e80e034c86657cc7993378e, type: 2}
  m_PrefabInternal: {fileID: 1490427204}
  m_GameObject: {fileID: 876803847}
  m_LocalRotation: {x: 0, y: 0, z: 0, w: 1}
  m_LocalPosition: {x: 0, y: 12.74, z: -0.75}
  m_LocalScale: {x: 1, y: 1, z: 1}
  m_Children:
  - {fileID: 259825407}
  m_Father: {fileID: 815702902}
  m_RootOrder: 5
  m_LocalEulerAnglesHint: {x: 0, y: 0, z: 0}
--- !u!1 &905506275
GameObject:
  m_ObjectHideFlags: 0
  m_PrefabParentObject: {fileID: 170994, guid: e05b3e8a9e80e034c86657cc7993378e, type: 2}
  m_PrefabInternal: {fileID: 1490427204}
  serializedVersion: 5
  m_Component:
  - component: {fileID: 905506276}
  - component: {fileID: 905506278}
  - component: {fileID: 905506277}
  m_Layer: 0
  m_Name: rope8
  m_TagString: Untagged
  m_Icon: {fileID: 0}
  m_NavMeshLayer: 0
  m_StaticEditorFlags: 0
  m_IsActive: 1
--- !u!4 &905506276
Transform:
  m_ObjectHideFlags: 0
  m_PrefabParentObject: {fileID: 442228, guid: e05b3e8a9e80e034c86657cc7993378e, type: 2}
  m_PrefabInternal: {fileID: 1490427204}
  m_GameObject: {fileID: 905506275}
  m_LocalRotation: {x: 0, y: 0, z: 0, w: 1}
  m_LocalPosition: {x: 0, y: -1.95, z: 4.06}
  m_LocalScale: {x: 1, y: 1, z: 1}
  m_Children: []
  m_Father: {fileID: 155803684}
  m_RootOrder: 6
  m_LocalEulerAnglesHint: {x: 0, y: 0, z: 0}
--- !u!23 &905506277
MeshRenderer:
  m_ObjectHideFlags: 0
  m_PrefabParentObject: {fileID: 2341094, guid: e05b3e8a9e80e034c86657cc7993378e,
    type: 2}
  m_PrefabInternal: {fileID: 1490427204}
  m_GameObject: {fileID: 905506275}
  m_Enabled: 1
  m_CastShadows: 1
  m_ReceiveShadows: 1
  m_DynamicOccludee: 1
  m_MotionVectors: 1
  m_LightProbeUsage: 1
  m_ReflectionProbeUsage: 1
  m_Materials:
  - {fileID: 2100000, guid: 6a00192e6f5fa3640ae0834b735ed847, type: 2}
  m_StaticBatchInfo:
    firstSubMesh: 0
    subMeshCount: 0
  m_StaticBatchRoot: {fileID: 0}
  m_ProbeAnchor: {fileID: 0}
  m_LightProbeVolumeOverride: {fileID: 0}
  m_ScaleInLightmap: 1
  m_PreserveUVs: 0
  m_IgnoreNormalsForChartDetection: 0
  m_ImportantGI: 0
  m_StitchLightmapSeams: 0
  m_SelectedEditorRenderState: 3
  m_MinimumChartSize: 4
  m_AutoUVMaxDistance: 0.5
  m_AutoUVMaxAngle: 89
  m_LightmapParameters: {fileID: 0}
  m_SortingLayerID: 0
  m_SortingLayer: 0
  m_SortingOrder: 0
--- !u!33 &905506278
MeshFilter:
  m_ObjectHideFlags: 0
  m_PrefabParentObject: {fileID: 3345908, guid: e05b3e8a9e80e034c86657cc7993378e,
    type: 2}
  m_PrefabInternal: {fileID: 1490427204}
  m_GameObject: {fileID: 905506275}
  m_Mesh: {fileID: 4300048, guid: 81f3769ab2b82604aad39f57de409e99, type: 3}
--- !u!1 &928758969
GameObject:
  m_ObjectHideFlags: 0
  m_PrefabParentObject: {fileID: 100668, guid: e05b3e8a9e80e034c86657cc7993378e, type: 2}
  m_PrefabInternal: {fileID: 1490427204}
  serializedVersion: 5
  m_Component:
  - component: {fileID: 928758970}
  m_Layer: 0
  m_Name: sailPivot (8)
  m_TagString: Untagged
  m_Icon: {fileID: 0}
  m_NavMeshLayer: 0
  m_StaticEditorFlags: 0
  m_IsActive: 1
--- !u!4 &928758970
Transform:
  m_ObjectHideFlags: 0
  m_PrefabParentObject: {fileID: 412394, guid: e05b3e8a9e80e034c86657cc7993378e, type: 2}
  m_PrefabInternal: {fileID: 1490427204}
  m_GameObject: {fileID: 928758969}
  m_LocalRotation: {x: 0, y: 0, z: 0, w: 1}
  m_LocalPosition: {x: 0, y: 13.28, z: -0.7000003}
  m_LocalScale: {x: 1, y: 1, z: 1}
  m_Children:
  - {fileID: 1170134553}
  m_Father: {fileID: 155803684}
  m_RootOrder: 3
  m_LocalEulerAnglesHint: {x: 0, y: 0, z: 0}
--- !u!1 &1115931001
GameObject:
  m_ObjectHideFlags: 0
  m_PrefabParentObject: {fileID: 112164, guid: e05b3e8a9e80e034c86657cc7993378e, type: 2}
  m_PrefabInternal: {fileID: 1490427204}
  serializedVersion: 5
  m_Component:
  - component: {fileID: 1115931002}
  - component: {fileID: 1115931004}
  - component: {fileID: 1115931003}
  m_Layer: 0
  m_Name: mast2
  m_TagString: Untagged
  m_Icon: {fileID: 0}
  m_NavMeshLayer: 0
  m_StaticEditorFlags: 0
  m_IsActive: 1
--- !u!4 &1115931002
Transform:
  m_ObjectHideFlags: 0
  m_PrefabParentObject: {fileID: 460772, guid: e05b3e8a9e80e034c86657cc7993378e, type: 2}
  m_PrefabInternal: {fileID: 1490427204}
  m_GameObject: {fileID: 1115931001}
  m_LocalRotation: {x: 0, y: 0, z: 0, w: 1}
  m_LocalPosition: {x: 0, y: -2.34, z: -7.79}
  m_LocalScale: {x: 1, y: 1, z: 1}
  m_Children: []
  m_Father: {fileID: 815702902}
  m_RootOrder: 0
  m_LocalEulerAnglesHint: {x: 0, y: 0, z: 0}
--- !u!23 &1115931003
MeshRenderer:
  m_ObjectHideFlags: 0
  m_PrefabParentObject: {fileID: 2351828, guid: e05b3e8a9e80e034c86657cc7993378e,
    type: 2}
  m_PrefabInternal: {fileID: 1490427204}
  m_GameObject: {fileID: 1115931001}
  m_Enabled: 1
  m_CastShadows: 1
  m_ReceiveShadows: 1
  m_DynamicOccludee: 1
  m_MotionVectors: 1
  m_LightProbeUsage: 1
  m_ReflectionProbeUsage: 1
  m_Materials:
  - {fileID: 2100000, guid: 6a00192e6f5fa3640ae0834b735ed847, type: 2}
  m_StaticBatchInfo:
    firstSubMesh: 0
    subMeshCount: 0
  m_StaticBatchRoot: {fileID: 0}
  m_ProbeAnchor: {fileID: 0}
  m_LightProbeVolumeOverride: {fileID: 0}
  m_ScaleInLightmap: 1
  m_PreserveUVs: 0
  m_IgnoreNormalsForChartDetection: 0
  m_ImportantGI: 0
  m_StitchLightmapSeams: 0
  m_SelectedEditorRenderState: 3
  m_MinimumChartSize: 4
  m_AutoUVMaxDistance: 0.5
  m_AutoUVMaxAngle: 89
  m_LightmapParameters: {fileID: 0}
  m_SortingLayerID: 0
  m_SortingLayer: 0
  m_SortingOrder: 0
--- !u!33 &1115931004
MeshFilter:
  m_ObjectHideFlags: 0
  m_PrefabParentObject: {fileID: 3347454, guid: e05b3e8a9e80e034c86657cc7993378e,
    type: 2}
  m_PrefabInternal: {fileID: 1490427204}
  m_GameObject: {fileID: 1115931001}
  m_Mesh: {fileID: 4300026, guid: 81f3769ab2b82604aad39f57de409e99, type: 3}
--- !u!1 &1149820137
GameObject:
  m_ObjectHideFlags: 0
  m_PrefabParentObject: {fileID: 185594, guid: e05b3e8a9e80e034c86657cc7993378e, type: 2}
  m_PrefabInternal: {fileID: 1490427204}
  serializedVersion: 5
  m_Component:
  - component: {fileID: 1149820138}
  m_Layer: 0
  m_Name: sailPivot (7)
  m_TagString: Untagged
  m_Icon: {fileID: 0}
  m_NavMeshLayer: 0
  m_StaticEditorFlags: 0
  m_IsActive: 1
--- !u!4 &1149820138
Transform:
  m_ObjectHideFlags: 0
  m_PrefabParentObject: {fileID: 466476, guid: e05b3e8a9e80e034c86657cc7993378e, type: 2}
  m_PrefabInternal: {fileID: 1490427204}
  m_GameObject: {fileID: 1149820137}
  m_LocalRotation: {x: 0, y: 0, z: 0, w: 1}
  m_LocalPosition: {x: 0, y: 24.34, z: -1.29}
  m_LocalScale: {x: 1, y: 1, z: 1}
  m_Children:
  - {fileID: 235080218}
  m_Father: {fileID: 155803684}
  m_RootOrder: 2
  m_LocalEulerAnglesHint: {x: 0, y: 0, z: 0}
--- !u!1 &1165005493
GameObject:
  m_ObjectHideFlags: 0
  m_PrefabParentObject: {fileID: 137270, guid: e05b3e8a9e80e034c86657cc7993378e, type: 2}
  m_PrefabInternal: {fileID: 1490427204}
  serializedVersion: 5
  m_Component:
  - component: {fileID: 1165005494}
  - component: {fileID: 1165005496}
  - component: {fileID: 1165005495}
  m_Layer: 0
  m_Name: rope6
  m_TagString: Untagged
  m_Icon: {fileID: 0}
  m_NavMeshLayer: 0
  m_StaticEditorFlags: 0
  m_IsActive: 1
--- !u!4 &1165005494
Transform:
  m_ObjectHideFlags: 0
  m_PrefabParentObject: {fileID: 457214, guid: e05b3e8a9e80e034c86657cc7993378e, type: 2}
  m_PrefabInternal: {fileID: 1490427204}
  m_GameObject: {fileID: 1165005493}
  m_LocalRotation: {x: 0, y: 0, z: 0, w: 1}
  m_LocalPosition: {x: 0, y: -2.34, z: -7.79}
  m_LocalScale: {x: 1, y: 1, z: 1}
  m_Children: []
  m_Father: {fileID: 815702902}
  m_RootOrder: 9
  m_LocalEulerAnglesHint: {x: 0, y: 0, z: 0}
--- !u!23 &1165005495
MeshRenderer:
  m_ObjectHideFlags: 0
  m_PrefabParentObject: {fileID: 2344588, guid: e05b3e8a9e80e034c86657cc7993378e,
    type: 2}
  m_PrefabInternal: {fileID: 1490427204}
  m_GameObject: {fileID: 1165005493}
  m_Enabled: 1
  m_CastShadows: 1
  m_ReceiveShadows: 1
  m_DynamicOccludee: 1
  m_MotionVectors: 1
  m_LightProbeUsage: 1
  m_ReflectionProbeUsage: 1
  m_Materials:
  - {fileID: 2100000, guid: 6a00192e6f5fa3640ae0834b735ed847, type: 2}
  m_StaticBatchInfo:
    firstSubMesh: 0
    subMeshCount: 0
  m_StaticBatchRoot: {fileID: 0}
  m_ProbeAnchor: {fileID: 0}
  m_LightProbeVolumeOverride: {fileID: 0}
  m_ScaleInLightmap: 1
  m_PreserveUVs: 0
  m_IgnoreNormalsForChartDetection: 0
  m_ImportantGI: 0
  m_StitchLightmapSeams: 0
  m_SelectedEditorRenderState: 3
  m_MinimumChartSize: 4
  m_AutoUVMaxDistance: 0.5
  m_AutoUVMaxAngle: 89
  m_LightmapParameters: {fileID: 0}
  m_SortingLayerID: 0
  m_SortingLayer: 0
  m_SortingOrder: 0
--- !u!33 &1165005496
MeshFilter:
  m_ObjectHideFlags: 0
  m_PrefabParentObject: {fileID: 3310522, guid: e05b3e8a9e80e034c86657cc7993378e,
    type: 2}
  m_PrefabInternal: {fileID: 1490427204}
  m_GameObject: {fileID: 1165005493}
  m_Mesh: {fileID: 4300044, guid: 81f3769ab2b82604aad39f57de409e99, type: 3}
--- !u!1 &1170134552
GameObject:
  m_ObjectHideFlags: 0
  m_PrefabParentObject: {fileID: 116934, guid: e05b3e8a9e80e034c86657cc7993378e, type: 2}
  m_PrefabInternal: {fileID: 1490427204}
  serializedVersion: 5
  m_Component:
  - component: {fileID: 1170134553}
  - component: {fileID: 1170134555}
  - component: {fileID: 1170134554}
  m_Layer: 0
  m_Name: sail8
  m_TagString: Untagged
  m_Icon: {fileID: 0}
  m_NavMeshLayer: 0
  m_StaticEditorFlags: 0
  m_IsActive: 1
--- !u!4 &1170134553
Transform:
  m_ObjectHideFlags: 0
  m_PrefabParentObject: {fileID: 496332, guid: e05b3e8a9e80e034c86657cc7993378e, type: 2}
  m_PrefabInternal: {fileID: 1490427204}
  m_GameObject: {fileID: 1170134552}
  m_LocalRotation: {x: 0, y: 0, z: 0, w: 1}
  m_LocalPosition: {x: 0, y: -15.23, z: 4.76}
  m_LocalScale: {x: 1, y: 1, z: 1}
  m_Children: []
  m_Father: {fileID: 928758970}
  m_RootOrder: 0
  m_LocalEulerAnglesHint: {x: 0, y: 0, z: 0}
--- !u!23 &1170134554
MeshRenderer:
  m_ObjectHideFlags: 0
  m_PrefabParentObject: {fileID: 2310356, guid: e05b3e8a9e80e034c86657cc7993378e,
    type: 2}
  m_PrefabInternal: {fileID: 1490427204}
  m_GameObject: {fileID: 1170134552}
  m_Enabled: 1
  m_CastShadows: 1
  m_ReceiveShadows: 1
  m_DynamicOccludee: 1
  m_MotionVectors: 1
  m_LightProbeUsage: 1
  m_ReflectionProbeUsage: 1
  m_Materials:
  - {fileID: 2100000, guid: 6a00192e6f5fa3640ae0834b735ed847, type: 2}
  m_StaticBatchInfo:
    firstSubMesh: 0
    subMeshCount: 0
  m_StaticBatchRoot: {fileID: 0}
  m_ProbeAnchor: {fileID: 0}
  m_LightProbeVolumeOverride: {fileID: 0}
  m_ScaleInLightmap: 1
  m_PreserveUVs: 0
  m_IgnoreNormalsForChartDetection: 0
  m_ImportantGI: 0
  m_StitchLightmapSeams: 0
  m_SelectedEditorRenderState: 3
  m_MinimumChartSize: 4
  m_AutoUVMaxDistance: 0.5
  m_AutoUVMaxAngle: 89
  m_LightmapParameters: {fileID: 0}
  m_SortingLayerID: 0
  m_SortingLayer: 0
  m_SortingOrder: 0
--- !u!33 &1170134555
MeshFilter:
  m_ObjectHideFlags: 0
  m_PrefabParentObject: {fileID: 3375136, guid: e05b3e8a9e80e034c86657cc7993378e,
    type: 2}
  m_PrefabInternal: {fileID: 1490427204}
  m_GameObject: {fileID: 1170134552}
  m_Mesh: {fileID: 4300068, guid: 81f3769ab2b82604aad39f57de409e99, type: 3}
--- !u!1 &1171980980
GameObject:
  m_ObjectHideFlags: 0
  m_PrefabParentObject: {fileID: 181172, guid: e05b3e8a9e80e034c86657cc7993378e, type: 2}
  m_PrefabInternal: {fileID: 1490427204}
  serializedVersion: 5
  m_Component:
  - component: {fileID: 1171980981}
  - component: {fileID: 1171980983}
  - component: {fileID: 1171980982}
  m_Layer: 0
  m_Name: sail1
  m_TagString: Untagged
  m_Icon: {fileID: 0}
  m_NavMeshLayer: 0
  m_StaticEditorFlags: 0
  m_IsActive: 1
--- !u!4 &1171980981
Transform:
  m_ObjectHideFlags: 0
  m_PrefabParentObject: {fileID: 419936, guid: e05b3e8a9e80e034c86657cc7993378e, type: 2}
  m_PrefabInternal: {fileID: 1490427204}
  m_GameObject: {fileID: 1171980980}
  m_LocalRotation: {x: -0.4511704, y: 0, z: 0, w: 0.8924379}
  m_LocalPosition: {x: 0, y: -25.529594, z: 3.3202581}
  m_LocalScale: {x: 1, y: 1, z: 1}
  m_Children: []
  m_Father: {fileID: 853753944}
  m_RootOrder: 0
  m_LocalEulerAnglesHint: {x: -53.6376, y: 0, z: 0}
--- !u!23 &1171980982
MeshRenderer:
  m_ObjectHideFlags: 0
  m_PrefabParentObject: {fileID: 2303256, guid: e05b3e8a9e80e034c86657cc7993378e,
    type: 2}
  m_PrefabInternal: {fileID: 1490427204}
  m_GameObject: {fileID: 1171980980}
  m_Enabled: 1
  m_CastShadows: 1
  m_ReceiveShadows: 1
  m_DynamicOccludee: 1
  m_MotionVectors: 1
  m_LightProbeUsage: 1
  m_ReflectionProbeUsage: 1
  m_Materials:
  - {fileID: 2100000, guid: 6a00192e6f5fa3640ae0834b735ed847, type: 2}
  m_StaticBatchInfo:
    firstSubMesh: 0
    subMeshCount: 0
  m_StaticBatchRoot: {fileID: 0}
  m_ProbeAnchor: {fileID: 0}
  m_LightProbeVolumeOverride: {fileID: 0}
  m_ScaleInLightmap: 1
  m_PreserveUVs: 0
  m_IgnoreNormalsForChartDetection: 0
  m_ImportantGI: 0
  m_StitchLightmapSeams: 0
  m_SelectedEditorRenderState: 3
  m_MinimumChartSize: 4
  m_AutoUVMaxDistance: 0.5
  m_AutoUVMaxAngle: 89
  m_LightmapParameters: {fileID: 0}
  m_SortingLayerID: 0
  m_SortingLayer: 0
  m_SortingOrder: 0
--- !u!33 &1171980983
MeshFilter:
  m_ObjectHideFlags: 0
  m_PrefabParentObject: {fileID: 3384868, guid: e05b3e8a9e80e034c86657cc7993378e,
    type: 2}
  m_PrefabInternal: {fileID: 1490427204}
  m_GameObject: {fileID: 1171980980}
  m_Mesh: {fileID: 4300052, guid: 81f3769ab2b82604aad39f57de409e99, type: 3}
--- !u!1 &1194641619
GameObject:
  m_ObjectHideFlags: 0
  m_PrefabParentObject: {fileID: 129570, guid: e05b3e8a9e80e034c86657cc7993378e, type: 2}
  m_PrefabInternal: {fileID: 1490427204}
  serializedVersion: 5
  m_Component:
  - component: {fileID: 1194641620}
  - component: {fileID: 1194641622}
  - component: {fileID: 1194641621}
  m_Layer: 0
  m_Name: mast4
  m_TagString: Untagged
  m_Icon: {fileID: 0}
  m_NavMeshLayer: 0
  m_StaticEditorFlags: 0
  m_IsActive: 1
--- !u!4 &1194641620
Transform:
  m_ObjectHideFlags: 0
  m_PrefabParentObject: {fileID: 489378, guid: e05b3e8a9e80e034c86657cc7993378e, type: 2}
  m_PrefabInternal: {fileID: 1490427204}
  m_GameObject: {fileID: 1194641619}
  m_LocalRotation: {x: 0, y: 0, z: 0, w: 1}
  m_LocalPosition: {x: 0, y: -4.4, z: 11.95}
  m_LocalScale: {x: 1, y: 1, z: 1}
  m_Children: []
  m_Father: {fileID: 306856814}
  m_RootOrder: 0
  m_LocalEulerAnglesHint: {x: 0, y: 0, z: 0}
--- !u!23 &1194641621
MeshRenderer:
  m_ObjectHideFlags: 0
  m_PrefabParentObject: {fileID: 2397262, guid: e05b3e8a9e80e034c86657cc7993378e,
    type: 2}
  m_PrefabInternal: {fileID: 1490427204}
  m_GameObject: {fileID: 1194641619}
  m_Enabled: 1
  m_CastShadows: 1
  m_ReceiveShadows: 1
  m_DynamicOccludee: 1
  m_MotionVectors: 1
  m_LightProbeUsage: 1
  m_ReflectionProbeUsage: 1
  m_Materials:
  - {fileID: 2100000, guid: 6a00192e6f5fa3640ae0834b735ed847, type: 2}
  m_StaticBatchInfo:
    firstSubMesh: 0
    subMeshCount: 0
  m_StaticBatchRoot: {fileID: 0}
  m_ProbeAnchor: {fileID: 0}
  m_LightProbeVolumeOverride: {fileID: 0}
  m_ScaleInLightmap: 1
  m_PreserveUVs: 0
  m_IgnoreNormalsForChartDetection: 0
  m_ImportantGI: 0
  m_StitchLightmapSeams: 0
  m_SelectedEditorRenderState: 3
  m_MinimumChartSize: 4
  m_AutoUVMaxDistance: 0.5
  m_AutoUVMaxAngle: 89
  m_LightmapParameters: {fileID: 0}
  m_SortingLayerID: 0
  m_SortingLayer: 0
  m_SortingOrder: 0
--- !u!33 &1194641622
MeshFilter:
  m_ObjectHideFlags: 0
  m_PrefabParentObject: {fileID: 3320432, guid: e05b3e8a9e80e034c86657cc7993378e,
    type: 2}
  m_PrefabInternal: {fileID: 1490427204}
  m_GameObject: {fileID: 1194641619}
  m_Mesh: {fileID: 4300030, guid: 81f3769ab2b82604aad39f57de409e99, type: 3}
--- !u!1 &1217395925
GameObject:
  m_ObjectHideFlags: 0
  m_PrefabParentObject: {fileID: 145808, guid: e05b3e8a9e80e034c86657cc7993378e, type: 2}
  m_PrefabInternal: {fileID: 1490427204}
  serializedVersion: 5
  m_Component:
  - component: {fileID: 1217395926}
  m_Layer: 0
  m_Name: Boat_1800early_BrigSloop_LOD_0
  m_TagString: Untagged
  m_Icon: {fileID: 0}
  m_NavMeshLayer: 0
  m_StaticEditorFlags: 0
  m_IsActive: 1
--- !u!4 &1217395926
Transform:
  m_ObjectHideFlags: 0
  m_PrefabParentObject: {fileID: 430372, guid: e05b3e8a9e80e034c86657cc7993378e, type: 2}
  m_PrefabInternal: {fileID: 1490427204}
  m_GameObject: {fileID: 1217395925}
  m_LocalRotation: {x: 0, y: 0, z: 0, w: 1}
  m_LocalPosition: {x: -40.6, y: 0, z: 0}
  m_LocalScale: {x: 1, y: 1, z: 1}
  m_Children:
  - {fileID: 1498432695}
  - {fileID: 84198759}
  - {fileID: 815702902}
  - {fileID: 155803684}
  - {fileID: 306856814}
  m_Father: {fileID: 0}
  m_RootOrder: 2
  m_LocalEulerAnglesHint: {x: 0, y: 0, z: 0}
--- !u!1 &1322797226
GameObject:
  m_ObjectHideFlags: 0
  m_PrefabParentObject: {fileID: 173430, guid: e05b3e8a9e80e034c86657cc7993378e, type: 2}
  m_PrefabInternal: {fileID: 1490427204}
  serializedVersion: 5
  m_Component:
  - component: {fileID: 1322797227}
  - component: {fileID: 1322797229}
  - component: {fileID: 1322797228}
  m_Layer: 0
  m_Name: rope1
  m_TagString: Untagged
  m_Icon: {fileID: 0}
  m_NavMeshLayer: 0
  m_StaticEditorFlags: 0
  m_IsActive: 1
--- !u!4 &1322797227
Transform:
  m_ObjectHideFlags: 0
  m_PrefabParentObject: {fileID: 400782, guid: e05b3e8a9e80e034c86657cc7993378e, type: 2}
  m_PrefabInternal: {fileID: 1490427204}
  m_GameObject: {fileID: 1322797226}
  m_LocalRotation: {x: 0, y: 0, z: 0, w: 1}
  m_LocalPosition: {x: 0, y: -2.34, z: -7.79}
  m_LocalScale: {x: 1, y: 1, z: 1}
  m_Children: []
  m_Father: {fileID: 815702902}
  m_RootOrder: 6
  m_LocalEulerAnglesHint: {x: 0, y: 0, z: 0}
--- !u!23 &1322797228
MeshRenderer:
  m_ObjectHideFlags: 0
  m_PrefabParentObject: {fileID: 2324542, guid: e05b3e8a9e80e034c86657cc7993378e,
    type: 2}
  m_PrefabInternal: {fileID: 1490427204}
  m_GameObject: {fileID: 1322797226}
  m_Enabled: 1
  m_CastShadows: 1
  m_ReceiveShadows: 1
  m_DynamicOccludee: 1
  m_MotionVectors: 1
  m_LightProbeUsage: 1
  m_ReflectionProbeUsage: 1
  m_Materials:
  - {fileID: 2100000, guid: 6a00192e6f5fa3640ae0834b735ed847, type: 2}
  m_StaticBatchInfo:
    firstSubMesh: 0
    subMeshCount: 0
  m_StaticBatchRoot: {fileID: 0}
  m_ProbeAnchor: {fileID: 0}
  m_LightProbeVolumeOverride: {fileID: 0}
  m_ScaleInLightmap: 1
  m_PreserveUVs: 0
  m_IgnoreNormalsForChartDetection: 0
  m_ImportantGI: 0
  m_StitchLightmapSeams: 0
  m_SelectedEditorRenderState: 3
  m_MinimumChartSize: 4
  m_AutoUVMaxDistance: 0.5
  m_AutoUVMaxAngle: 89
  m_LightmapParameters: {fileID: 0}
  m_SortingLayerID: 0
  m_SortingLayer: 0
  m_SortingOrder: 0
--- !u!33 &1322797229
MeshFilter:
  m_ObjectHideFlags: 0
  m_PrefabParentObject: {fileID: 3302378, guid: e05b3e8a9e80e034c86657cc7993378e,
    type: 2}
  m_PrefabInternal: {fileID: 1490427204}
  m_GameObject: {fileID: 1322797226}
  m_Mesh: {fileID: 4300032, guid: 81f3769ab2b82604aad39f57de409e99, type: 3}
--- !u!1 &1323728343
GameObject:
  m_ObjectHideFlags: 0
  m_PrefabParentObject: {fileID: 0}
  m_PrefabInternal: {fileID: 0}
  serializedVersion: 5
  m_Component:
  - component: {fileID: 1323728348}
  - component: {fileID: 1323728347}
  - component: {fileID: 1323728346}
  - component: {fileID: 1323728345}
  - component: {fileID: 1323728344}
  m_Layer: 0
  m_Name: Main Camera
  m_TagString: MainCamera
  m_Icon: {fileID: 0}
  m_NavMeshLayer: 0
  m_StaticEditorFlags: 0
  m_IsActive: 1
--- !u!81 &1323728344
AudioListener:
  m_ObjectHideFlags: 0
  m_PrefabParentObject: {fileID: 0}
  m_PrefabInternal: {fileID: 0}
  m_GameObject: {fileID: 1323728343}
  m_Enabled: 1
--- !u!124 &1323728345
Behaviour:
  m_ObjectHideFlags: 0
  m_PrefabParentObject: {fileID: 0}
  m_PrefabInternal: {fileID: 0}
  m_GameObject: {fileID: 1323728343}
  m_Enabled: 1
--- !u!92 &1323728346
Behaviour:
  m_ObjectHideFlags: 0
  m_PrefabParentObject: {fileID: 0}
  m_PrefabInternal: {fileID: 0}
  m_GameObject: {fileID: 1323728343}
  m_Enabled: 1
--- !u!20 &1323728347
Camera:
  m_ObjectHideFlags: 0
  m_PrefabParentObject: {fileID: 0}
  m_PrefabInternal: {fileID: 0}
  m_GameObject: {fileID: 1323728343}
  m_Enabled: 1
  serializedVersion: 2
  m_ClearFlags: 1
  m_BackGroundColor: {r: 0.19215687, g: 0.3019608, b: 0.4745098, a: 0.019607844}
  m_NormalizedViewPortRect:
    serializedVersion: 2
    x: 0
    y: 0
    width: 1
    height: 1
  near clip plane: 0.3
  far clip plane: 1000
  field of view: 60
  orthographic: 0
  orthographic size: 5
  m_Depth: -1
  m_CullingMask:
    serializedVersion: 2
    m_Bits: 4294967295
  m_RenderingPath: -1
  m_TargetTexture: {fileID: 0}
  m_TargetDisplay: 0
  m_TargetEye: 3
  m_HDR: 0
  m_AllowMSAA: 1
  m_ForceIntoRT: 0
  m_OcclusionCulling: 1
  m_StereoConvergence: 10
  m_StereoSeparation: 0.022
--- !u!4 &1323728348
Transform:
  m_ObjectHideFlags: 0
  m_PrefabParentObject: {fileID: 0}
  m_PrefabInternal: {fileID: 0}
  m_GameObject: {fileID: 1323728343}
  m_LocalRotation: {x: -0.048144937, y: -0.8071988, z: -0.06648347, w: 0.58454436}
  m_LocalPosition: {x: 17.09, y: 6.17, z: 14.76}
  m_LocalScale: {x: 1, y: 1, z: 1}
  m_Children: []
  m_Father: {fileID: 0}
  m_RootOrder: 0
  m_LocalEulerAnglesHint: {x: -9.4168, y: -108.1786, z: 0}
--- !u!1 &1332786742
GameObject:
  m_ObjectHideFlags: 0
  m_PrefabParentObject: {fileID: 163024, guid: e05b3e8a9e80e034c86657cc7993378e, type: 2}
  m_PrefabInternal: {fileID: 1490427204}
  serializedVersion: 5
  m_Component:
  - component: {fileID: 1332786743}
  - component: {fileID: 1332786745}
  - component: {fileID: 1332786744}
  m_Layer: 0
  m_Name: rope4
  m_TagString: Untagged
  m_Icon: {fileID: 0}
  m_NavMeshLayer: 0
  m_StaticEditorFlags: 0
  m_IsActive: 1
--- !u!4 &1332786743
Transform:
  m_ObjectHideFlags: 0
  m_PrefabParentObject: {fileID: 474988, guid: e05b3e8a9e80e034c86657cc7993378e, type: 2}
  m_PrefabInternal: {fileID: 1490427204}
  m_GameObject: {fileID: 1332786742}
  m_LocalRotation: {x: 0, y: 0, z: 0, w: 1}
  m_LocalPosition: {x: 0, y: -1.95, z: 4.06}
  m_LocalScale: {x: 1, y: 1, z: 1}
  m_Children: []
  m_Father: {fileID: 155803684}
  m_RootOrder: 4
  m_LocalEulerAnglesHint: {x: 0, y: 0, z: 0}
--- !u!23 &1332786744
MeshRenderer:
  m_ObjectHideFlags: 0
  m_PrefabParentObject: {fileID: 2382252, guid: e05b3e8a9e80e034c86657cc7993378e,
    type: 2}
  m_PrefabInternal: {fileID: 1490427204}
  m_GameObject: {fileID: 1332786742}
  m_Enabled: 1
  m_CastShadows: 1
  m_ReceiveShadows: 1
  m_DynamicOccludee: 1
  m_MotionVectors: 1
  m_LightProbeUsage: 1
  m_ReflectionProbeUsage: 1
  m_Materials:
  - {fileID: 2100000, guid: 6a00192e6f5fa3640ae0834b735ed847, type: 2}
  m_StaticBatchInfo:
    firstSubMesh: 0
    subMeshCount: 0
  m_StaticBatchRoot: {fileID: 0}
  m_ProbeAnchor: {fileID: 0}
  m_LightProbeVolumeOverride: {fileID: 0}
  m_ScaleInLightmap: 1
  m_PreserveUVs: 0
  m_IgnoreNormalsForChartDetection: 0
  m_ImportantGI: 0
  m_StitchLightmapSeams: 0
  m_SelectedEditorRenderState: 3
  m_MinimumChartSize: 4
  m_AutoUVMaxDistance: 0.5
  m_AutoUVMaxAngle: 89
  m_LightmapParameters: {fileID: 0}
  m_SortingLayerID: 0
  m_SortingLayer: 0
  m_SortingOrder: 0
--- !u!33 &1332786745
MeshFilter:
  m_ObjectHideFlags: 0
  m_PrefabParentObject: {fileID: 3368252, guid: e05b3e8a9e80e034c86657cc7993378e,
    type: 2}
  m_PrefabInternal: {fileID: 1490427204}
  m_GameObject: {fileID: 1332786742}
  m_Mesh: {fileID: 4300040, guid: 81f3769ab2b82604aad39f57de409e99, type: 3}
--- !u!1 &1346816784
GameObject:
  m_ObjectHideFlags: 0
  m_PrefabParentObject: {fileID: 181874, guid: e05b3e8a9e80e034c86657cc7993378e, type: 2}
  m_PrefabInternal: {fileID: 1490427204}
  serializedVersion: 5
  m_Component:
  - component: {fileID: 1346816785}
  - component: {fileID: 1346816787}
  - component: {fileID: 1346816786}
  m_Layer: 0
  m_Name: rope7
  m_TagString: Untagged
  m_Icon: {fileID: 0}
  m_NavMeshLayer: 0
  m_StaticEditorFlags: 0
  m_IsActive: 1
--- !u!4 &1346816785
Transform:
  m_ObjectHideFlags: 0
  m_PrefabParentObject: {fileID: 418118, guid: e05b3e8a9e80e034c86657cc7993378e, type: 2}
  m_PrefabInternal: {fileID: 1490427204}
  m_GameObject: {fileID: 1346816784}
  m_LocalRotation: {x: 0, y: 0, z: 0, w: 1}
  m_LocalPosition: {x: 0, y: -2.34, z: -7.79}
  m_LocalScale: {x: 1, y: 1, z: 1}
  m_Children: []
  m_Father: {fileID: 815702902}
  m_RootOrder: 10
  m_LocalEulerAnglesHint: {x: 0, y: 0, z: 0}
--- !u!23 &1346816786
MeshRenderer:
  m_ObjectHideFlags: 0
  m_PrefabParentObject: {fileID: 2349026, guid: e05b3e8a9e80e034c86657cc7993378e,
    type: 2}
  m_PrefabInternal: {fileID: 1490427204}
  m_GameObject: {fileID: 1346816784}
  m_Enabled: 1
  m_CastShadows: 1
  m_ReceiveShadows: 1
  m_DynamicOccludee: 1
  m_MotionVectors: 1
  m_LightProbeUsage: 1
  m_ReflectionProbeUsage: 1
  m_Materials:
  - {fileID: 2100000, guid: 6a00192e6f5fa3640ae0834b735ed847, type: 2}
  m_StaticBatchInfo:
    firstSubMesh: 0
    subMeshCount: 0
  m_StaticBatchRoot: {fileID: 0}
  m_ProbeAnchor: {fileID: 0}
  m_LightProbeVolumeOverride: {fileID: 0}
  m_ScaleInLightmap: 1
  m_PreserveUVs: 0
  m_IgnoreNormalsForChartDetection: 0
  m_ImportantGI: 0
  m_StitchLightmapSeams: 0
  m_SelectedEditorRenderState: 3
  m_MinimumChartSize: 4
  m_AutoUVMaxDistance: 0.5
  m_AutoUVMaxAngle: 89
  m_LightmapParameters: {fileID: 0}
  m_SortingLayerID: 0
  m_SortingLayer: 0
  m_SortingOrder: 0
--- !u!33 &1346816787
MeshFilter:
  m_ObjectHideFlags: 0
  m_PrefabParentObject: {fileID: 3319308, guid: e05b3e8a9e80e034c86657cc7993378e,
    type: 2}
  m_PrefabInternal: {fileID: 1490427204}
  m_GameObject: {fileID: 1346816784}
  m_Mesh: {fileID: 4300046, guid: 81f3769ab2b82604aad39f57de409e99, type: 3}
--- !u!1 &1424741885
GameObject:
  m_ObjectHideFlags: 0
  m_PrefabParentObject: {fileID: 151882, guid: e05b3e8a9e80e034c86657cc7993378e, type: 2}
  m_PrefabInternal: {fileID: 1490427204}
  serializedVersion: 5
  m_Component:
  - component: {fileID: 1424741886}
  - component: {fileID: 1424741888}
  - component: {fileID: 1424741887}
  m_Layer: 0
  m_Name: rope9
  m_TagString: Untagged
  m_Icon: {fileID: 0}
  m_NavMeshLayer: 0
  m_StaticEditorFlags: 0
  m_IsActive: 1
--- !u!4 &1424741886
Transform:
  m_ObjectHideFlags: 0
  m_PrefabParentObject: {fileID: 453252, guid: e05b3e8a9e80e034c86657cc7993378e, type: 2}
  m_PrefabInternal: {fileID: 1490427204}
  m_GameObject: {fileID: 1424741885}
  m_LocalRotation: {x: 0, y: 0, z: 0, w: 1}
  m_LocalPosition: {x: 0, y: -1.95, z: 4.06}
  m_LocalScale: {x: 1, y: 1, z: 1}
  m_Children: []
  m_Father: {fileID: 155803684}
  m_RootOrder: 7
  m_LocalEulerAnglesHint: {x: 0, y: 0, z: 0}
--- !u!23 &1424741887
MeshRenderer:
  m_ObjectHideFlags: 0
  m_PrefabParentObject: {fileID: 2376244, guid: e05b3e8a9e80e034c86657cc7993378e,
    type: 2}
  m_PrefabInternal: {fileID: 1490427204}
  m_GameObject: {fileID: 1424741885}
  m_Enabled: 1
  m_CastShadows: 1
  m_ReceiveShadows: 1
  m_DynamicOccludee: 1
  m_MotionVectors: 1
  m_LightProbeUsage: 1
  m_ReflectionProbeUsage: 1
  m_Materials:
  - {fileID: 2100000, guid: 6a00192e6f5fa3640ae0834b735ed847, type: 2}
  m_StaticBatchInfo:
    firstSubMesh: 0
    subMeshCount: 0
  m_StaticBatchRoot: {fileID: 0}
  m_ProbeAnchor: {fileID: 0}
  m_LightProbeVolumeOverride: {fileID: 0}
  m_ScaleInLightmap: 1
  m_PreserveUVs: 0
  m_IgnoreNormalsForChartDetection: 0
  m_ImportantGI: 0
  m_StitchLightmapSeams: 0
  m_SelectedEditorRenderState: 3
  m_MinimumChartSize: 4
  m_AutoUVMaxDistance: 0.5
  m_AutoUVMaxAngle: 89
  m_LightmapParameters: {fileID: 0}
  m_SortingLayerID: 0
  m_SortingLayer: 0
  m_SortingOrder: 0
--- !u!33 &1424741888
MeshFilter:
  m_ObjectHideFlags: 0
  m_PrefabParentObject: {fileID: 3387432, guid: e05b3e8a9e80e034c86657cc7993378e,
    type: 2}
  m_PrefabInternal: {fileID: 1490427204}
  m_GameObject: {fileID: 1424741885}
  m_Mesh: {fileID: 4300050, guid: 81f3769ab2b82604aad39f57de409e99, type: 3}
--- !u!1 &1439490279
GameObject:
  m_ObjectHideFlags: 0
  m_PrefabParentObject: {fileID: 158526, guid: e05b3e8a9e80e034c86657cc7993378e, type: 2}
  m_PrefabInternal: {fileID: 1490427204}
  serializedVersion: 5
  m_Component:
  - component: {fileID: 1439490280}
  - component: {fileID: 1439490282}
  - component: {fileID: 1439490281}
  m_Layer: 0
  m_Name: sail9
  m_TagString: Untagged
  m_Icon: {fileID: 0}
  m_NavMeshLayer: 0
  m_StaticEditorFlags: 0
  m_IsActive: 1
--- !u!4 &1439490280
Transform:
  m_ObjectHideFlags: 0
  m_PrefabParentObject: {fileID: 407922, guid: e05b3e8a9e80e034c86657cc7993378e, type: 2}
  m_PrefabInternal: {fileID: 1490427204}
  m_GameObject: {fileID: 1439490279}
  m_LocalRotation: {x: -0.35290134, y: 0, z: 0, w: 0.9356606}
  m_LocalPosition: {x: 0, y: -2.788372, z: 21.896328}
  m_LocalScale: {x: 1, y: 1, z: 1}
  m_Children: []
  m_Father: {fileID: 1653786592}
  m_RootOrder: 0
  m_LocalEulerAnglesHint: {x: -41.3297, y: 0, z: 0}
--- !u!23 &1439490281
MeshRenderer:
  m_ObjectHideFlags: 0
  m_PrefabParentObject: {fileID: 2369466, guid: e05b3e8a9e80e034c86657cc7993378e,
    type: 2}
  m_PrefabInternal: {fileID: 1490427204}
  m_GameObject: {fileID: 1439490279}
  m_Enabled: 1
  m_CastShadows: 1
  m_ReceiveShadows: 1
  m_DynamicOccludee: 1
  m_MotionVectors: 1
  m_LightProbeUsage: 1
  m_ReflectionProbeUsage: 1
  m_Materials:
  - {fileID: 2100000, guid: 6a00192e6f5fa3640ae0834b735ed847, type: 2}
  m_StaticBatchInfo:
    firstSubMesh: 0
    subMeshCount: 0
  m_StaticBatchRoot: {fileID: 0}
  m_ProbeAnchor: {fileID: 0}
  m_LightProbeVolumeOverride: {fileID: 0}
  m_ScaleInLightmap: 1
  m_PreserveUVs: 0
  m_IgnoreNormalsForChartDetection: 0
  m_ImportantGI: 0
  m_StitchLightmapSeams: 0
  m_SelectedEditorRenderState: 3
  m_MinimumChartSize: 4
  m_AutoUVMaxDistance: 0.5
  m_AutoUVMaxAngle: 89
  m_LightmapParameters: {fileID: 0}
  m_SortingLayerID: 0
  m_SortingLayer: 0
  m_SortingOrder: 0
--- !u!33 &1439490282
MeshFilter:
  m_ObjectHideFlags: 0
  m_PrefabParentObject: {fileID: 3337278, guid: e05b3e8a9e80e034c86657cc7993378e,
    type: 2}
  m_PrefabInternal: {fileID: 1490427204}
  m_GameObject: {fileID: 1439490279}
  m_Mesh: {fileID: 4300070, guid: 81f3769ab2b82604aad39f57de409e99, type: 3}
--- !u!1 &1478880605
GameObject:
  m_ObjectHideFlags: 0
  m_PrefabParentObject: {fileID: 190928, guid: e05b3e8a9e80e034c86657cc7993378e, type: 2}
  m_PrefabInternal: {fileID: 1490427204}
  serializedVersion: 5
  m_Component:
  - component: {fileID: 1478880606}
  m_Layer: 0
  m_Name: sailPivot (3)
  m_TagString: Untagged
  m_Icon: {fileID: 0}
  m_NavMeshLayer: 0
  m_StaticEditorFlags: 0
  m_IsActive: 1
--- !u!4 &1478880606
Transform:
  m_ObjectHideFlags: 0
  m_PrefabParentObject: {fileID: 417406, guid: e05b3e8a9e80e034c86657cc7993378e, type: 2}
  m_PrefabInternal: {fileID: 1490427204}
  m_GameObject: {fileID: 1478880605}
  m_LocalRotation: {x: 0, y: 0, z: 0, w: 1}
  m_LocalPosition: {x: 0, y: 28.68, z: -1.77}
  m_LocalScale: {x: 1, y: 1, z: 1}
  m_Children:
  - {fileID: 2071775227}
  m_Father: {fileID: 815702902}
  m_RootOrder: 3
  m_LocalEulerAnglesHint: {x: 0, y: 0, z: 0}
--- !u!1 &1485135177
GameObject:
  m_ObjectHideFlags: 0
  m_PrefabParentObject: {fileID: 148148, guid: e05b3e8a9e80e034c86657cc7993378e, type: 2}
  m_PrefabInternal: {fileID: 1490427204}
  serializedVersion: 5
  m_Component:
  - component: {fileID: 1485135178}
  m_Layer: 0
  m_Name: sailPivot (2)
  m_TagString: Untagged
  m_Icon: {fileID: 0}
  m_NavMeshLayer: 0
  m_StaticEditorFlags: 0
  m_IsActive: 1
--- !u!4 &1485135178
Transform:
  m_ObjectHideFlags: 0
  m_PrefabParentObject: {fileID: 489642, guid: e05b3e8a9e80e034c86657cc7993378e, type: 2}
  m_PrefabInternal: {fileID: 1490427204}
  m_GameObject: {fileID: 1485135177}
  m_LocalRotation: {x: 0.4357616, y: 0, z: 0, w: 0.90006214}
  m_LocalPosition: {x: 0, y: 14.35, z: 7.5}
  m_LocalScale: {x: 1, y: 1, z: 1}
  m_Children:
  - {fileID: 694894438}
  m_Father: {fileID: 815702902}
  m_RootOrder: 2
  m_LocalEulerAnglesHint: {x: 51.6675, y: 0, z: 0}
--- !u!1001 &1490427204
Prefab:
  m_ObjectHideFlags: 0
  serializedVersion: 2
  m_Modification:
    m_TransformParent: {fileID: 0}
    m_Modifications:
    - target: {fileID: 430372, guid: e05b3e8a9e80e034c86657cc7993378e, type: 2}
      propertyPath: m_LocalPosition.x
      value: -40.6
      objectReference: {fileID: 0}
    - target: {fileID: 430372, guid: e05b3e8a9e80e034c86657cc7993378e, type: 2}
      propertyPath: m_LocalPosition.y
      value: 0
      objectReference: {fileID: 0}
    - target: {fileID: 430372, guid: e05b3e8a9e80e034c86657cc7993378e, type: 2}
      propertyPath: m_LocalPosition.z
      value: 0
      objectReference: {fileID: 0}
    - target: {fileID: 430372, guid: e05b3e8a9e80e034c86657cc7993378e, type: 2}
      propertyPath: m_LocalRotation.x
      value: 0
      objectReference: {fileID: 0}
    - target: {fileID: 430372, guid: e05b3e8a9e80e034c86657cc7993378e, type: 2}
      propertyPath: m_LocalRotation.y
      value: 0
      objectReference: {fileID: 0}
    - target: {fileID: 430372, guid: e05b3e8a9e80e034c86657cc7993378e, type: 2}
      propertyPath: m_LocalRotation.z
      value: 0
      objectReference: {fileID: 0}
    - target: {fileID: 430372, guid: e05b3e8a9e80e034c86657cc7993378e, type: 2}
      propertyPath: m_LocalRotation.w
      value: 1
      objectReference: {fileID: 0}
    - target: {fileID: 430372, guid: e05b3e8a9e80e034c86657cc7993378e, type: 2}
      propertyPath: m_RootOrder
      value: 2
      objectReference: {fileID: 0}
    m_RemovedComponents: []
  m_ParentPrefab: {fileID: 100100000, guid: e05b3e8a9e80e034c86657cc7993378e, type: 2}
  m_RootGameObject: {fileID: 1217395925}
  m_IsPrefabParent: 0
--- !u!1 &1498432694
GameObject:
  m_ObjectHideFlags: 0
  m_PrefabParentObject: {fileID: 152860, guid: e05b3e8a9e80e034c86657cc7993378e, type: 2}
  m_PrefabInternal: {fileID: 1490427204}
  serializedVersion: 5
  m_Component:
  - component: {fileID: 1498432695}
  - component: {fileID: 1498432697}
  - component: {fileID: 1498432696}
  m_Layer: 0
  m_Name: boatBase
  m_TagString: Untagged
  m_Icon: {fileID: 0}
  m_NavMeshLayer: 0
  m_StaticEditorFlags: 0
  m_IsActive: 1
--- !u!4 &1498432695
Transform:
  m_ObjectHideFlags: 0
  m_PrefabParentObject: {fileID: 409986, guid: e05b3e8a9e80e034c86657cc7993378e, type: 2}
  m_PrefabInternal: {fileID: 1490427204}
  m_GameObject: {fileID: 1498432694}
  m_LocalRotation: {x: 0, y: 0, z: 0, w: 1}
  m_LocalPosition: {x: 0, y: 0, z: 0}
  m_LocalScale: {x: 1, y: 1, z: 1}
  m_Children: []
  m_Father: {fileID: 1217395926}
  m_RootOrder: 0
  m_LocalEulerAnglesHint: {x: 0, y: 0, z: 0}
--- !u!23 &1498432696
MeshRenderer:
  m_ObjectHideFlags: 0
  m_PrefabParentObject: {fileID: 2381996, guid: e05b3e8a9e80e034c86657cc7993378e,
    type: 2}
  m_PrefabInternal: {fileID: 1490427204}
  m_GameObject: {fileID: 1498432694}
  m_Enabled: 1
  m_CastShadows: 1
  m_ReceiveShadows: 1
  m_DynamicOccludee: 1
  m_MotionVectors: 1
  m_LightProbeUsage: 1
  m_ReflectionProbeUsage: 1
  m_Materials:
  - {fileID: 2100000, guid: 6a00192e6f5fa3640ae0834b735ed847, type: 2}
  m_StaticBatchInfo:
    firstSubMesh: 0
    subMeshCount: 0
  m_StaticBatchRoot: {fileID: 0}
  m_ProbeAnchor: {fileID: 0}
  m_LightProbeVolumeOverride: {fileID: 0}
  m_ScaleInLightmap: 1
  m_PreserveUVs: 0
  m_IgnoreNormalsForChartDetection: 0
  m_ImportantGI: 0
  m_StitchLightmapSeams: 0
  m_SelectedEditorRenderState: 3
  m_MinimumChartSize: 4
  m_AutoUVMaxDistance: 0.5
  m_AutoUVMaxAngle: 89
  m_LightmapParameters: {fileID: 0}
  m_SortingLayerID: 0
  m_SortingLayer: 0
  m_SortingOrder: 0
--- !u!33 &1498432697
MeshFilter:
  m_ObjectHideFlags: 0
  m_PrefabParentObject: {fileID: 3366640, guid: e05b3e8a9e80e034c86657cc7993378e,
    type: 2}
  m_PrefabInternal: {fileID: 1490427204}
  m_GameObject: {fileID: 1498432694}
  m_Mesh: {fileID: 4300022, guid: 81f3769ab2b82604aad39f57de409e99, type: 3}
--- !u!1 &1653786591
GameObject:
  m_ObjectHideFlags: 0
  m_PrefabParentObject: {fileID: 179124, guid: e05b3e8a9e80e034c86657cc7993378e, type: 2}
  m_PrefabInternal: {fileID: 1490427204}
  serializedVersion: 5
  m_Component:
  - component: {fileID: 1653786592}
  m_Layer: 0
  m_Name: sailPivot (9)
  m_TagString: Untagged
  m_Icon: {fileID: 0}
  m_NavMeshLayer: 0
  m_StaticEditorFlags: 0
  m_IsActive: 1
--- !u!4 &1653786592
Transform:
  m_ObjectHideFlags: 0
  m_PrefabParentObject: {fileID: 455352, guid: e05b3e8a9e80e034c86657cc7993378e, type: 2}
  m_PrefabInternal: {fileID: 1490427204}
  m_GameObject: {fileID: 1653786591}
  m_LocalRotation: {x: 0.35290134, y: 0, z: 0, w: 0.9356606}
  m_LocalPosition: {x: 0, y: 12.154001, z: -2.651}
  m_LocalScale: {x: 1, y: 1, z: 1}
  m_Children:
  - {fileID: 1439490280}
  m_Father: {fileID: 306856814}
  m_RootOrder: 1
  m_LocalEulerAnglesHint: {x: 41.3298, y: 0, z: 0}
--- !u!1 &1778075394
GameObject:
  m_ObjectHideFlags: 0
  m_PrefabParentObject: {fileID: 0}
  m_PrefabInternal: {fileID: 0}
  serializedVersion: 5
  m_Component:
  - component: {fileID: 1778075396}
  - component: {fileID: 1778075395}
  - component: {fileID: 1778075397}
  m_Layer: 0
  m_Name: Directional Light
  m_TagString: Untagged
  m_Icon: {fileID: 0}
  m_NavMeshLayer: 0
  m_StaticEditorFlags: 0
  m_IsActive: 1
--- !u!108 &1778075395
Light:
  m_ObjectHideFlags: 0
  m_PrefabParentObject: {fileID: 0}
  m_PrefabInternal: {fileID: 0}
  m_GameObject: {fileID: 1778075394}
  m_Enabled: 1
  serializedVersion: 8
  m_Type: 1
  m_Color: {r: 1, g: 0.95686275, b: 0.8392157, a: 1}
  m_Intensity: 1
  m_Range: 10
  m_SpotAngle: 30
  m_CookieSize: 10
  m_Shadows:
    m_Type: 2
    m_Resolution: -1
    m_CustomResolution: -1
    m_Strength: 1
    m_Bias: 0.05
    m_NormalBias: 0.4
    m_NearPlane: 0.2
  m_Cookie: {fileID: 0}
  m_DrawHalo: 0
  m_Flare: {fileID: 0}
  m_RenderMode: 0
  m_CullingMask:
    serializedVersion: 2
    m_Bits: 4294967295
  m_Lightmapping: 4
  m_AreaSize: {x: 1, y: 1}
  m_BounceIntensity: 1
  m_ColorTemperature: 6570
  m_UseColorTemperature: 0
  m_ShadowRadius: 0
  m_ShadowAngle: 0
--- !u!4 &1778075396
Transform:
  m_ObjectHideFlags: 0
  m_PrefabParentObject: {fileID: 0}
  m_PrefabInternal: {fileID: 0}
  m_GameObject: {fileID: 1778075394}
  m_LocalRotation: {x: 0.40821794, y: -0.23456973, z: 0.109381676, w: 0.87542605}
  m_LocalPosition: {x: 0, y: 3, z: -18.09}
  m_LocalScale: {x: 1, y: 1, z: 1}
  m_Children: []
  m_Father: {fileID: 0}
  m_RootOrder: 1
  m_LocalEulerAnglesHint: {x: 50, y: -30, z: 0}
--- !u!45 &1778075397
Skybox:
  m_ObjectHideFlags: 0
  m_PrefabParentObject: {fileID: 0}
  m_PrefabInternal: {fileID: 0}
  m_GameObject: {fileID: 1778075394}
  m_Enabled: 1
  m_CustomSkybox: {fileID: 10304, guid: 0000000000000000f000000000000000, type: 0}
--- !u!1 &1781151227
GameObject:
  m_ObjectHideFlags: 0
  m_PrefabParentObject: {fileID: 131544, guid: e05b3e8a9e80e034c86657cc7993378e, type: 2}
  m_PrefabInternal: {fileID: 1490427204}
  serializedVersion: 5
  m_Component:
  - component: {fileID: 1781151228}
  - component: {fileID: 1781151230}
  - component: {fileID: 1781151229}
  m_Layer: 0
  m_Name: rope3
  m_TagString: Untagged
  m_Icon: {fileID: 0}
  m_NavMeshLayer: 0
  m_StaticEditorFlags: 0
  m_IsActive: 1
--- !u!4 &1781151228
Transform:
  m_ObjectHideFlags: 0
  m_PrefabParentObject: {fileID: 430786, guid: e05b3e8a9e80e034c86657cc7993378e, type: 2}
  m_PrefabInternal: {fileID: 1490427204}
  m_GameObject: {fileID: 1781151227}
  m_LocalRotation: {x: 0, y: 0, z: 0, w: 1}
  m_LocalPosition: {x: 0, y: -2.34, z: -7.79}
  m_LocalScale: {x: 1, y: 1, z: 1}
  m_Children: []
  m_Father: {fileID: 815702902}
  m_RootOrder: 8
  m_LocalEulerAnglesHint: {x: 0, y: 0, z: 0}
--- !u!23 &1781151229
MeshRenderer:
  m_ObjectHideFlags: 0
  m_PrefabParentObject: {fileID: 2345010, guid: e05b3e8a9e80e034c86657cc7993378e,
    type: 2}
  m_PrefabInternal: {fileID: 1490427204}
  m_GameObject: {fileID: 1781151227}
  m_Enabled: 1
  m_CastShadows: 1
  m_ReceiveShadows: 1
  m_DynamicOccludee: 1
  m_MotionVectors: 1
  m_LightProbeUsage: 1
  m_ReflectionProbeUsage: 1
  m_Materials:
  - {fileID: 2100000, guid: 6a00192e6f5fa3640ae0834b735ed847, type: 2}
  m_StaticBatchInfo:
    firstSubMesh: 0
    subMeshCount: 0
  m_StaticBatchRoot: {fileID: 0}
  m_ProbeAnchor: {fileID: 0}
  m_LightProbeVolumeOverride: {fileID: 0}
  m_ScaleInLightmap: 1
  m_PreserveUVs: 0
  m_IgnoreNormalsForChartDetection: 0
  m_ImportantGI: 0
  m_StitchLightmapSeams: 0
  m_SelectedEditorRenderState: 3
  m_MinimumChartSize: 4
  m_AutoUVMaxDistance: 0.5
  m_AutoUVMaxAngle: 89
  m_LightmapParameters: {fileID: 0}
  m_SortingLayerID: 0
  m_SortingLayer: 0
  m_SortingOrder: 0
--- !u!33 &1781151230
MeshFilter:
  m_ObjectHideFlags: 0
  m_PrefabParentObject: {fileID: 3343504, guid: e05b3e8a9e80e034c86657cc7993378e,
    type: 2}
  m_PrefabInternal: {fileID: 1490427204}
  m_GameObject: {fileID: 1781151227}
  m_Mesh: {fileID: 4300038, guid: 81f3769ab2b82604aad39f57de409e99, type: 3}
--- !u!1 &1978237210
GameObject:
  m_ObjectHideFlags: 0
  m_PrefabParentObject: {fileID: 112212, guid: e05b3e8a9e80e034c86657cc7993378e, type: 2}
  m_PrefabInternal: {fileID: 1490427204}
  serializedVersion: 5
  m_Component:
  - component: {fileID: 1978237211}
  - component: {fileID: 1978237213}
  - component: {fileID: 1978237212}
  m_Layer: 0
  m_Name: rope5
  m_TagString: Untagged
  m_Icon: {fileID: 0}
  m_NavMeshLayer: 0
  m_StaticEditorFlags: 0
  m_IsActive: 1
--- !u!4 &1978237211
Transform:
  m_ObjectHideFlags: 0
  m_PrefabParentObject: {fileID: 423672, guid: e05b3e8a9e80e034c86657cc7993378e, type: 2}
  m_PrefabInternal: {fileID: 1490427204}
  m_GameObject: {fileID: 1978237210}
  m_LocalRotation: {x: 0, y: 0, z: 0, w: 1}
  m_LocalPosition: {x: 0, y: -1.95, z: 4.06}
  m_LocalScale: {x: 1, y: 1, z: 1}
  m_Children: []
  m_Father: {fileID: 155803684}
  m_RootOrder: 5
  m_LocalEulerAnglesHint: {x: 0, y: 0, z: 0}
--- !u!23 &1978237212
MeshRenderer:
  m_ObjectHideFlags: 0
  m_PrefabParentObject: {fileID: 2310136, guid: e05b3e8a9e80e034c86657cc7993378e,
    type: 2}
  m_PrefabInternal: {fileID: 1490427204}
  m_GameObject: {fileID: 1978237210}
  m_Enabled: 1
  m_CastShadows: 1
  m_ReceiveShadows: 1
  m_DynamicOccludee: 1
  m_MotionVectors: 1
  m_LightProbeUsage: 1
  m_ReflectionProbeUsage: 1
  m_Materials:
  - {fileID: 2100000, guid: 6a00192e6f5fa3640ae0834b735ed847, type: 2}
  m_StaticBatchInfo:
    firstSubMesh: 0
    subMeshCount: 0
  m_StaticBatchRoot: {fileID: 0}
  m_ProbeAnchor: {fileID: 0}
  m_LightProbeVolumeOverride: {fileID: 0}
  m_ScaleInLightmap: 1
  m_PreserveUVs: 0
  m_IgnoreNormalsForChartDetection: 0
  m_ImportantGI: 0
  m_StitchLightmapSeams: 0
  m_SelectedEditorRenderState: 3
  m_MinimumChartSize: 4
  m_AutoUVMaxDistance: 0.5
  m_AutoUVMaxAngle: 89
  m_LightmapParameters: {fileID: 0}
  m_SortingLayerID: 0
  m_SortingLayer: 0
  m_SortingOrder: 0
--- !u!33 &1978237213
MeshFilter:
  m_ObjectHideFlags: 0
  m_PrefabParentObject: {fileID: 3306922, guid: e05b3e8a9e80e034c86657cc7993378e,
    type: 2}
  m_PrefabInternal: {fileID: 1490427204}
  m_GameObject: {fileID: 1978237210}
  m_Mesh: {fileID: 4300042, guid: 81f3769ab2b82604aad39f57de409e99, type: 3}
--- !u!1 &2000018550
GameObject:
  m_ObjectHideFlags: 0
  m_PrefabParentObject: {fileID: 109454, guid: e05b3e8a9e80e034c86657cc7993378e, type: 2}
  m_PrefabInternal: {fileID: 1490427204}
  serializedVersion: 5
  m_Component:
  - component: {fileID: 2000018551}
  - component: {fileID: 2000018553}
  - component: {fileID: 2000018552}
  m_Layer: 0
  m_Name: sail6
  m_TagString: Untagged
  m_Icon: {fileID: 0}
  m_NavMeshLayer: 0
  m_StaticEditorFlags: 0
  m_IsActive: 1
--- !u!4 &2000018551
Transform:
  m_ObjectHideFlags: 0
  m_PrefabParentObject: {fileID: 458344, guid: e05b3e8a9e80e034c86657cc7993378e, type: 2}
  m_PrefabInternal: {fileID: 1490427204}
  m_GameObject: {fileID: 2000018550}
  m_LocalRotation: {x: 0, y: 0, z: 0, w: 1}
  m_LocalPosition: {x: 0, y: -30.98, z: 5.63}
  m_LocalScale: {x: 1, y: 1, z: 1}
  m_Children: []
  m_Father: {fileID: 492902494}
  m_RootOrder: 0
  m_LocalEulerAnglesHint: {x: 0, y: 0, z: 0}
--- !u!23 &2000018552
MeshRenderer:
  m_ObjectHideFlags: 0
  m_PrefabParentObject: {fileID: 2379116, guid: e05b3e8a9e80e034c86657cc7993378e,
    type: 2}
  m_PrefabInternal: {fileID: 1490427204}
  m_GameObject: {fileID: 2000018550}
  m_Enabled: 1
  m_CastShadows: 1
  m_ReceiveShadows: 1
  m_DynamicOccludee: 1
  m_MotionVectors: 1
  m_LightProbeUsage: 1
  m_ReflectionProbeUsage: 1
  m_Materials:
  - {fileID: 2100000, guid: 6a00192e6f5fa3640ae0834b735ed847, type: 2}
  m_StaticBatchInfo:
    firstSubMesh: 0
    subMeshCount: 0
  m_StaticBatchRoot: {fileID: 0}
  m_ProbeAnchor: {fileID: 0}
  m_LightProbeVolumeOverride: {fileID: 0}
  m_ScaleInLightmap: 1
  m_PreserveUVs: 0
  m_IgnoreNormalsForChartDetection: 0
  m_ImportantGI: 0
  m_StitchLightmapSeams: 0
  m_SelectedEditorRenderState: 3
  m_MinimumChartSize: 4
  m_AutoUVMaxDistance: 0.5
  m_AutoUVMaxAngle: 89
  m_LightmapParameters: {fileID: 0}
  m_SortingLayerID: 0
  m_SortingLayer: 0
  m_SortingOrder: 0
--- !u!33 &2000018553
MeshFilter:
  m_ObjectHideFlags: 0
  m_PrefabParentObject: {fileID: 3362092, guid: e05b3e8a9e80e034c86657cc7993378e,
    type: 2}
  m_PrefabInternal: {fileID: 1490427204}
  m_GameObject: {fileID: 2000018550}
  m_Mesh: {fileID: 4300064, guid: 81f3769ab2b82604aad39f57de409e99, type: 3}
--- !u!1 &2071775226
GameObject:
  m_ObjectHideFlags: 0
  m_PrefabParentObject: {fileID: 179108, guid: e05b3e8a9e80e034c86657cc7993378e, type: 2}
  m_PrefabInternal: {fileID: 1490427204}
  serializedVersion: 5
  m_Component:
  - component: {fileID: 2071775227}
  - component: {fileID: 2071775229}
  - component: {fileID: 2071775228}
  m_Layer: 0
  m_Name: sail3
  m_TagString: Untagged
  m_Icon: {fileID: 0}
  m_NavMeshLayer: 0
  m_StaticEditorFlags: 0
  m_IsActive: 1
--- !u!4 &2071775227
Transform:
  m_ObjectHideFlags: 0
  m_PrefabParentObject: {fileID: 447800, guid: e05b3e8a9e80e034c86657cc7993378e, type: 2}
  m_PrefabInternal: {fileID: 1490427204}
  m_GameObject: {fileID: 2071775226}
  m_LocalRotation: {x: 0, y: 0, z: 0, w: 1}
  m_LocalPosition: {x: 0, y: -31.02, z: -6.02}
  m_LocalScale: {x: 1, y: 1, z: 1}
  m_Children: []
  m_Father: {fileID: 1478880606}
  m_RootOrder: 0
  m_LocalEulerAnglesHint: {x: 0, y: 0, z: 0}
--- !u!23 &2071775228
MeshRenderer:
  m_ObjectHideFlags: 0
  m_PrefabParentObject: {fileID: 2314328, guid: e05b3e8a9e80e034c86657cc7993378e,
    type: 2}
  m_PrefabInternal: {fileID: 1490427204}
  m_GameObject: {fileID: 2071775226}
  m_Enabled: 1
  m_CastShadows: 1
  m_ReceiveShadows: 1
  m_DynamicOccludee: 1
  m_MotionVectors: 1
  m_LightProbeUsage: 1
  m_ReflectionProbeUsage: 1
  m_Materials:
  - {fileID: 2100000, guid: 6a00192e6f5fa3640ae0834b735ed847, type: 2}
  m_StaticBatchInfo:
    firstSubMesh: 0
    subMeshCount: 0
  m_StaticBatchRoot: {fileID: 0}
  m_ProbeAnchor: {fileID: 0}
  m_LightProbeVolumeOverride: {fileID: 0}
  m_ScaleInLightmap: 1
  m_PreserveUVs: 0
  m_IgnoreNormalsForChartDetection: 0
  m_ImportantGI: 0
  m_StitchLightmapSeams: 0
  m_SelectedEditorRenderState: 3
  m_MinimumChartSize: 4
  m_AutoUVMaxDistance: 0.5
  m_AutoUVMaxAngle: 89
  m_LightmapParameters: {fileID: 0}
  m_SortingLayerID: 0
  m_SortingLayer: 0
  m_SortingOrder: 0
--- !u!33 &2071775229
MeshFilter:
  m_ObjectHideFlags: 0
  m_PrefabParentObject: {fileID: 3341174, guid: e05b3e8a9e80e034c86657cc7993378e,
    type: 2}
  m_PrefabInternal: {fileID: 1490427204}
  m_GameObject: {fileID: 2071775226}
  m_Mesh: {fileID: 4300058, guid: 81f3769ab2b82604aad39f57de409e99, type: 3}
